#ID,TIME,WT,AGE,SEX,AMT,RATE,DVID,DV,MDV,LNDV,TYPE
0,0,66.7,50,1,100,-2,0,.,1,.,0
0,0.5,66.7,50,1,.,.,1,0,1,.,0
0,1,66.7,50,1,.,.,1,1.9,0,0.641853886172395,0
0,2,66.7,50,1,.,.,1,3.3,0,1.19392246847243,0
0,3,66.7,50,1,.,.,1,6.6,0,1.88706964903238,0
0,6,66.7,50,1,.,.,1,9.1,0,2.2082744135228,0
0,9,66.7,50,1,.,.,1,10.8,0,2.37954613413017,0
0,12,66.7,50,1,.,.,1,8.6,0,2.15176220325946,0
0,24,66.7,50,1,.,.,1,5.6,0,1.7227665977411,0
0,36,66.7,50,1,.,.,1,4,0,1.38629436111989,0
0,48,66.7,50,1,.,.,1,2.7,0,0.993251773010283,0
0,72,66.7,50,1,.,.,1,0.8,0,-0.22314355131421,0
0,96,66.7,50,1,.,.,1,.,1,.,0
0,120,66.7,50,1,.,.,1,.,1,.,0
1,0,66.7,50,1,100,-2,0,.,1,.,0
1,24,66.7,50,1,.,.,1,9.2,0,2.21920348405499,0
1,36,66.7,50,1,.,.,1,8.5,0,2.14006616349627,0
1,48,66.7,50,1,.,.,1,6.4,0,1.85629799036563,0
1,72,66.7,50,1,.,.,1,4.8,0,1.56861591791385,0
1,96,66.7,50,1,.,.,1,3.1,0,1.1314021114911,0
1,120,66.7,50,1,.,.,1,2.5,0,0.916290731874155,0
2,0,66.7,31,1,100,-2,0,.,1,.,0
2,0.5,66.7,31,1,.,.,1,0,1,.,0
2,2,66.7,31,1,.,.,1,8.4,0,2.12823170584927,0
2,3,66.7,31,1,.,.,1,9.7,0,2.27212588550934,0
2,6,66.7,31,1,.,.,1,9.8,0,2.28238238567653,0
2,12,66.7,31,1,.,.,1,11,0,2.39789527279837,0
2,24,66.7,31,1,.,.,1,8.3,0,2.11625551480255,0
2,36,66.7,31,1,.,.,1,7.7,0,2.04122032885964,0
2,48,66.7,31,1,.,.,1,6.3,0,1.84054963339749,0
2,72,66.7,31,1,.,.,1,4.1,0,1.41098697371026,0
2,96,66.7,31,1,.,.,1,3,0,1.09861228866811,0
2,120,66.7,31,1,.,.,1,1.4,0,0.336472236621213,0
3,0,80,40,1,120,-2,0,.,1,.,0
3,3,80,40,1,.,.,1,12,0,2.484906649788,0
3,6,80,40,1,.,.,1,13.2,0,2.58021682959233,0
3,9,80,40,1,.,.,1,14.4,0,2.66722820658195,0
3,24,80,40,1,.,.,1,9.6,0,2.26176309847379,0
3,36,80,40,1,.,.,1,8.2,0,2.10413415427021,0
3,48,80,40,1,.,.,1,7.8,0,2.05412373369555,0
3,72,80,40,1,.,.,1,5.8,0,1.75785791755237,0
3,96,80,40,1,.,.,1,4.3,0,1.45861502269952,0
3,120,80,40,1,.,.,1,3,0,1.09861228866811,0
4,0,40,46,0,60,-2,0,.,1,.,0
4,3,40,46,0,.,.,1,11.1,0,2.40694510831829,0
4,6,40,46,0,.,.,1,11.9,0,2.47653840011748,0
4,9,40,46,0,.,.,1,9.8,0,2.28238238567653,0
4,12,40,46,0,.,.,1,11,0,2.39789527279837,0
4,24,40,46,0,.,.,1,8.5,0,2.14006616349627,0
4,36,40,46,0,.,.,1,7.6,0,2.02814824729229,0
4,48,40,46,0,.,.,1,5.4,0,1.68639895357023,0
4,72,40,46,0,.,.,1,4.5,0,1.50407739677627,0
4,96,40,46,0,.,.,1,3.3,0,1.19392246847243,0
4,120,40,46,0,.,.,1,2.3,0,0.832909122935104,0
5,0,75.3,43,1,113,-2,0,.,1,.,0
5,6,75.3,43,1,.,.,1,8.6,0,2.15176220325946,0
5,12,75.3,43,1,.,.,1,8.6,0,2.15176220325946,0
5,24,75.3,43,1,.,.,1,7,0,1.94591014905531,0
5,36,75.3,43,1,.,.,1,5.7,0,1.7404661748405,0
5,48,75.3,43,1,.,.,1,4.7,0,1.54756250871601,0
5,72,75.3,43,1,.,.,1,3.3,0,1.19392246847243,0
5,96,75.3,43,1,.,.,1,2.3,0,0.832909122935104,0
5,120,75.3,43,1,.,.,1,1.7,0,0.53062825106217,0
6,0,60,36,0,90,-2,0,.,1,.,0
6,3,60,36,0,.,.,1,13.4,0,2.59525470695687,0
6,6,60,36,0,.,.,1,12.4,0,2.51769647261099,0
6,9,60,36,0,.,.,1,12.7,0,2.54160199346455,0
6,12,60,36,0,.,.,1,8.8,0,2.17475172148416,0
6,24,60,36,0,.,.,1,6.1,0,1.80828877117927,0
6,36,60,36,0,.,.,1,3.5,0,1.25276296849537,0
6,48,60,36,0,.,.,1,1.8,0,0.587786664902119,0
6,72,60,36,0,.,.,1,1.5,0,0.405465108108164,0
6,96,60,36,0,.,.,1,1,0,0,0
6,120,60,36,0,.,.,1,.,1,.,0
7,0,90,41,1,135,-2,0,.,1,.,0
7,2,90,41,1,.,.,1,17.6,0,2.86789890204411,0
7,3,90,41,1,.,.,1,17.3,0,2.85070650150373,0
7,6,90,41,1,.,.,1,15,0,2.70805020110221,0
7,9,90,41,1,.,.,1,15,0,2.70805020110221,0
7,12,90,41,1,.,.,1,12.4,0,2.51769647261099,0
7,24,90,41,1,.,.,1,7.9,0,2.06686275947298,0
7,36,90,41,1,.,.,1,7.9,0,2.06686275947298,0
7,48,90,41,1,.,.,1,5.1,0,1.62924053973028,0
7,72,90,41,1,.,.,1,3.6,0,1.28093384546206,0
7,96,90,41,1,.,.,1,2.4,0,0.8754687373539,0
7,120,90,41,1,.,.,1,2,0,0.693147180559945,0
8,0,50,27,0,75,-2,0,.,1,.,0
8,0.5,50,27,0,.,.,1,0,1,.,0
8,1,50,27,0,.,.,1,1,0,0,0
8,2,50,27,0,.,.,1,4.6,0,1.52605630349505,0
8,3,50,27,0,.,.,1,12.7,0,2.54160199346455,0
8,3,50,27,0,.,.,1,8,0,2.07944154167984,0
8,6,50,27,0,.,.,1,12.7,0,2.54160199346455,0
8,6,50,27,0,.,.,1,11.5,0,2.4423470353692,0
8,9,50,27,0,.,.,1,12.9,0,2.55722731136763,0
8,9,50,27,0,.,.,1,11.4,0,2.43361335540045,0
8,12,50,27,0,.,.,1,11.4,0,2.43361335540045,0
8,12,50,27,0,.,.,1,11,0,2.39789527279837,0
8,24,50,27,0,.,.,1,9.1,0,2.2082744135228,0
8,36,50,27,0,.,.,1,8.2,0,2.10413415427021,0
8,48,50,27,0,.,.,1,5.9,0,1.77495235091167,0
8,72,50,27,0,.,.,1,3.6,0,1.28093384546206,0
8,96,50,27,0,.,.,1,1.7,0,0.53062825106217,0
8,120,50,27,0,.,.,1,1.1,0,0.0953101798043249,0
9,0,70,28,1,105,-2,0,.,1,.,0
9,24,70,28,1,.,.,1,8.6,0,2.15176220325946,0
9,36,70,28,1,.,.,1,8,0,2.07944154167984,0
9,48,70,28,1,.,.,1,6,0,1.79175946922805,0
9,72,70,28,1,.,.,1,4.4,0,1.48160454092422,0
9,96,70,28,1,.,.,1,3.6,0,1.28093384546206,0
9,120,70,28,1,.,.,1,2.8,0,1.02961941718116,0
11,0,82,31,1,123,-2,0,.,1,.,0
11,1.5,82,31,1,.,.,1,11.4,0,2.43361335540045,0
11,3,82,31,1,.,.,1,15.4,0,2.73436750941958,0
11,6,82,31,1,.,.,1,17.5,0,2.86220088092947,0
11,12,82,31,1,.,.,1,14,0,2.63905732961526,0
11,24,82,31,1,.,.,1,9,0,2.19722457733622,0
11,36,82,31,1,.,.,1,8.9,0,2.18605127673809,0
11,48,82,31,1,.,.,1,6.6,0,1.88706964903238,0
11,72,82,31,1,.,.,1,4.2,0,1.43508452528932,0
11,96,82,31,1,.,.,1,3.6,0,1.28093384546206,0
11,120,82,31,1,.,.,1,2.6,0,0.955511445027436,0
12,0,75.3,32,1,113,-2,0,.,1,.,0
12,1.5,75.3,32,1,.,.,1,0.6,0,-0.510825623765991,0
12,6,75.3,32,1,.,.,1,13.8,0,2.62466859216316,0
12,9,75.3,32,1,.,.,1,15,0,2.70805020110221,0
12,24,75.3,32,1,.,.,1,10.5,0,2.35137525716348,0
12,36,75.3,32,1,.,.,1,9.1,0,2.2082744135228,0
12,48,75.3,32,1,.,.,1,6.6,0,1.88706964903238,0
12,72,75.3,32,1,.,.,1,4.9,0,1.58923520511658,0
12,96,75.3,32,1,.,.,1,2.4,0,0.8754687373539,0
12,120,75.3,32,1,.,.,1,1.9,0,0.641853886172395,0
13,0,75.3,63,1,113,-2,0,.,1,.,0
13,0.5,75.3,63,1,.,.,1,.,1,.,0
13,1.5,75.3,63,1,.,.,1,3.6,0,1.28093384546206,0
13,2,75.3,63,1,.,.,1,.,1,.,0
13,3,75.3,63,1,.,.,1,12.9,0,2.55722731136763,0
13,6,75.3,63,1,.,.,1,12.9,0,2.55722731136763,0
13,9,75.3,63,1,.,.,1,10.2,0,2.32238772029023,0
13,24,75.3,63,1,.,.,1,6.4,0,1.85629799036563,0
13,36,75.3,63,1,.,.,1,6.9,0,1.93152141160321,0
13,48,75.3,63,1,.,.,1,4.5,0,1.50407739677627,0
13,72,75.3,63,1,.,.,1,3.2,0,1.16315080980568,0
13,96,75.3,63,1,.,.,1,2.4,0,0.8754687373539,0
13,120,75.3,63,1,.,.,1,1.3,0,0.262364264467491,0
14,0,50,36,0,75,-2,0,.,1,.,0
14,0.5,50,36,0,.,.,1,0,1,.,0
14,1,50,36,0,.,.,1,2.7,0,0.993251773010283,0
14,2,50,36,0,.,.,1,11.6,0,2.45100509811232,0
14,3,50,36,0,.,.,1,11.6,0,2.45100509811232,0
14,6,50,36,0,.,.,1,11.3,0,2.42480272571829,0
14,9,50,36,0,.,.,1,9.7,0,2.27212588550934,0
14,24,50,36,0,.,.,1,6.5,0,1.87180217690159,0
14,36,50,36,0,.,.,1,5.2,0,1.64865862558738,0
14,48,50,36,0,.,.,1,3.6,0,1.28093384546206,0
14,72,50,36,0,.,.,1,2.4,0,0.8754687373539,0
14,96,50,36,0,.,.,1,0.9,0,-0.105360515657826,0
14,120,50,36,0,.,.,1,.,1,.,0
15,0,56.7,27,0,85,-2,0,.,1,.,0
15,1,56.7,27,0,.,.,1,6.6,0,1.88706964903238,0
15,3,56.7,27,0,.,.,1,11.9,0,2.47653840011748,0
15,6,56.7,27,0,.,.,1,11.7,0,2.45958884180371,0
15,9,56.7,27,0,.,.,1,12.2,0,2.50143595173921,0
15,24,56.7,27,0,.,.,1,8.1,0,2.09186406167839,0
15,36,56.7,27,0,.,.,1,7.4,0,2.00148000021012,0
15,48,56.7,27,0,.,.,1,6.8,0,1.91692261218206,0
15,72,56.7,27,0,.,.,1,5.3,0,1.66770682055808,0
15,96,56.7,27,0,.,.,1,3,0,1.09861228866811,0
15,120,56.7,27,0,.,.,1,2,0,0.693147180559945,0
16,0,58,22,1,87,-2,0,.,1,.,0
16,24,58,22,1,.,.,1,10.4,0,2.34180580614733,0
16,36,58,22,1,.,.,1,8.9,0,2.18605127673809,0
16,48,58,22,1,.,.,1,7,0,1.94591014905531,0
16,72,58,22,1,.,.,1,4.4,0,1.48160454092422,0
16,96,58,22,1,.,.,1,3.2,0,1.16315080980568,0
16,120,58,22,1,.,.,1,2.4,0,0.8754687373539,0
17,0,78,28,1,117,-2,0,.,1,.,0
17,24,78,28,1,.,.,1,7.6,0,2.02814824729229,0
17,36,78,28,1,.,.,1,6.4,0,1.85629799036563,0
17,48,78,28,1,.,.,1,6,0,1.79175946922805,0
17,72,78,28,1,.,.,1,4,0,1.38629436111989,0
17,96,78,28,1,.,.,1,3.1,0,1.1314021114911,0
17,120,78,28,1,.,.,1,2,0,0.693147180559945,0
18,0,74.7,31,1,112,-2,0,.,1,.,0
18,24,74.7,31,1,.,.,1,7.6,0,2.02814824729229,0
18,36,74.7,31,1,.,.,1,6.6,0,1.88706964903238,0
18,48,74.7,31,1,.,.,1,5.4,0,1.68639895357023,0
18,72,74.7,31,1,.,.,1,3.4,0,1.22377543162212,0
18,96,74.7,31,1,.,.,1,1.2,0,0.182321556793955,0
18,120,74.7,31,1,.,.,1,0.9,0,-0.105360515657826,0
19,0,63.7,22,1,95.5,-2,0,.,1,.,0
19,24,63.7,22,1,.,.,1,6.6,0,1.88706964903238,0
19,36,63.7,22,1,.,.,1,5.3,0,1.66770682055808,0
19,48,63.7,22,1,.,.,1,3.6,0,1.28093384546206,0
19,72,63.7,22,1,.,.,1,2.7,0,0.993251773010283,0
19,96,63.7,22,1,.,.,1,1.4,0,0.336472236621213,0
19,120,63.7,22,1,.,.,1,1.1,0,0.0953101798043249,0
20,0,59,22,1,88.5,-2,0,.,1,.,0
20,24,59,22,1,.,.,1,9.6,0,2.26176309847379,0
20,36,59,22,1,.,.,1,8,0,2.07944154167984,0
20,48,59,22,1,.,.,1,6.6,0,1.88706964903238,0
20,72,59,22,1,.,.,1,5.6,0,1.7227665977411,0
20,96,59,22,1,.,.,1,3.5,0,1.25276296849537,0
20,120,59,22,1,.,.,1,2.3,0,0.832909122935104,0
21,0,62,27,1,93,-2,0,.,1,.,0
21,24,62,27,1,.,.,1,7.3,0,1.98787434815435,0
21,36,62,27,1,.,.,1,6.1,0,1.80828877117927,0
21,48,62,27,1,.,.,1,4.3,0,1.45861502269952,0
21,72,62,27,1,.,.,1,3.2,0,1.16315080980568,0
21,96,62,27,1,.,.,1,2.3,0,0.832909122935104,0
21,120,62,27,1,.,.,1,1.9,0,0.641853886172395,0
22,0,58,22,1,87,-2,0,.,1,.,0
22,24,58,22,1,.,.,1,8.9,0,2.18605127673809,0
22,36,58,22,1,.,.,1,8.4,0,2.12823170584927,0
22,48,58,22,1,.,.,1,8,0,2.07944154167984,0
22,72,58,22,1,.,.,1,4.4,0,1.48160454092422,0
22,96,58,22,1,.,.,1,3.2,0,1.16315080980568,0
22,120,58,22,1,.,.,1,1.7,0,0.53062825106217,0
23,0,73.3,22,1,110,-2,0,.,1,.,0
23,24,73.3,22,1,.,.,1,9.8,0,2.28238238567653,0
23,36,73.3,22,1,.,.,1,8.4,0,2.12823170584927,0
23,48,73.3,22,1,.,.,1,6.6,0,1.88706964903238,0
23,72,73.3,22,1,.,.,1,4.8,0,1.56861591791385,0
23,96,73.3,22,1,.,.,1,3.2,0,1.16315080980568,0
23,120,73.3,22,1,.,.,1,2.4,0,0.8754687373539,0
24,0,76.7,35,1,115,-2,0,.,1,.,0
24,24,76.7,35,1,.,.,1,8.2,0,2.10413415427021,0
24,36,76.7,35,1,.,.,1,7.5,0,2.01490302054226,0
24,48,76.7,35,1,.,.,1,6.8,0,1.91692261218206,0
24,72,76.7,35,1,.,.,1,5.5,0,1.70474809223843,0
24,96,76.7,35,1,.,.,1,4.5,0,1.50407739677627,0
24,120,76.7,35,1,.,.,1,3.7,0,1.30833281965018,0
25,0,74.7,23,1,112,-2,0,.,1,.,0
25,24,74.7,23,1,.,.,1,11,0,2.39789527279837,0
25,36,74.7,23,1,.,.,1,10,0,2.30258509299405,0
25,48,74.7,23,1,.,.,1,8.2,0,2.10413415427021,0
25,72,74.7,23,1,.,.,1,6,0,1.79175946922805,0
25,96,74.7,23,1,.,.,1,3.7,0,1.30833281965018,0
25,120,74.7,23,1,.,.,1,2.6,0,0.955511445027436,0
26,0,80,23,1,120,-2,0,.,1,.,0
26,24,80,23,1,.,.,1,10,0,2.30258509299405,0
26,36,80,23,1,.,.,1,9,0,2.19722457733622,0
26,48,80,23,1,.,.,1,7.3,0,1.98787434815435,0
26,72,80,23,1,.,.,1,5.2,0,1.64865862558738,0
26,96,80,23,1,.,.,1,3.7,0,1.30833281965018,0
26,120,80,23,1,.,.,1,2.7,0,0.993251773010283,0
27,0,80,22,1,120,-2,0,.,1,.,0
27,24,80,22,1,.,.,1,11.8,0,2.46809953147162,0
27,36,80,22,1,.,.,1,9.2,0,2.21920348405499,0
27,48,80,22,1,.,.,1,7.7,0,2.04122032885964,0
27,72,80,22,1,.,.,1,4.9,0,1.58923520511658,0
27,96,80,22,1,.,.,1,3.4,0,1.22377543162212,0
27,120,80,22,1,.,.,1,2.7,0,0.993251773010283,0
28,0,80,22,1,120,-2,0,.,1,.,0
28,24,80,22,1,.,.,1,10.1,0,2.31253542384721,0
28,36,80,22,1,.,.,1,8,0,2.07944154167984,0
28,48,80,22,1,.,.,1,6,0,1.79175946922805,0
28,72,80,22,1,.,.,1,4.9,0,1.58923520511658,0
28,96,80,22,1,.,.,1,3.4,0,1.22377543162212,0
28,120,80,22,1,.,.,1,2,0,0.693147180559945,0
29,0,102,22,1,153,-2,0,.,1,.,0
29,24,102,22,1,.,.,1,8.3,0,2.11625551480255,0
29,36,102,22,1,.,.,1,7,0,1.94591014905531,0
29,48,102,22,1,.,.,1,5.6,0,1.7227665977411,0
29,72,102,22,1,.,.,1,4.1,0,1.41098697371026,0
29,96,102,22,1,.,.,1,3.1,0,1.1314021114911,0
29,120,102,22,1,.,.,1,2.2,0,0.78845736036427,0
30,0,70,23,1,105,-2,0,.,1,.,0
30,24,70,23,1,.,.,1,9.9,0,2.29253475714054,0
30,36,70,23,1,.,.,1,7.5,0,2.01490302054226,0
30,48,70,23,1,.,.,1,6.5,0,1.87180217690159,0
30,72,70,23,1,.,.,1,4.1,0,1.41098697371026,0
30,96,70,23,1,.,.,1,2.9,0,1.06471073699243,0
30,120,70,23,1,.,.,1,2.3,0,0.832909122935104,0
31,0,83.3,24,1,125,-2,0,.,1,.,0
31,24,83.3,24,1,.,.,1,9.5,0,2.2512917986065,0
31,36,83.3,24,1,.,.,1,7.8,0,2.05412373369555,0
31,48,83.3,24,1,.,.,1,6.4,0,1.85629799036563,0
31,72,83.3,24,1,.,.,1,4.5,0,1.50407739677627,0
31,96,83.3,24,1,.,.,1,3.4,0,1.22377543162212,0
31,120,83.3,24,1,.,.,1,2.5,0,0.916290731874155,0
32,0,62,21,1,93,-2,0,.,1,.,0
32,24,62,21,1,.,.,1,8.9,0,2.18605127673809,0
32,36,62,21,1,.,.,1,7.7,0,2.04122032885964,0
32,48,62,21,1,.,.,1,6.9,0,1.93152141160321,0
32,72,62,21,1,.,.,1,4.4,0,1.48160454092422,0
32,96,62,21,1,.,.,1,3.5,0,1.25276296849537,0
32,120,62,21,1,.,.,1,2.5,0,0.916290731874155,0
