ID	TIME	ADM	AMT	CONC
1	0	2	2.24	.
1	0.0833	.	.	518
1	0.167	.	.	444
1	0.333	.	.	310
1	0.5	.	.	229
1	0.667	.	.	196
1	0.833	.	.	171
1	1	.	.	142
1	1.25	.	.	105
1	1.5	.	.	79.1
1	1.75	.	.	61.4
1	2	.	.	54.9
1	2.25	.	.	39.9
1	2.5	.	.	35.5
1	2.75	.	.	28
1	3	.	.	25.9
1	3.5	.	.	21.5
1	4	.	.	17.5
1	5	.	.	12.7
1	6	1	7	.
1	6.0833	.	.	0
1	6.167	.	.	0
1	6.333	.	.	0
1	6.5	.	.	8.1
1	6.667	.	.	62.5
1	6.833	.	.	146
1	7	.	.	192
1	7.25	.	.	184
1	7.5	.	.	153
1	7.75	.	.	199
1	8	.	.	141
1	8.25	.	.	173
1	8.5	.	.	181
1	8.75	.	.	188
1	9	.	.	189
1	9.5	.	.	152
1	10	.	.	133
1	11	.	.	110
2	0	2	2.73	.
2	0.0833	.	.	577
2	0.167	.	.	506
2	0.333	.	.	380
2	0.5	.	.	309
2	0.667	.	.	247
2	0.833	.	.	204
2	1	.	.	176
2	1.25	.	.	130
2	1.5	.	.	104
2	1.75	.	.	84.5
2	2	.	.	69.3
2	2.25	.	.	60.3
2	2.5	.	.	47.1
2	2.75	.	.	39.4
2	3	.	.	30.7
2	3.5	.	.	19.1
2	4	.	.	19.6
2	5	.	.	14.9
2	6	1	7	.
2	6.0833	.	.	0
2	6.167	.	.	0
2	6.333	.	.	10.3
2	6.5	.	.	70.8
2	6.667	.	.	138
2	6.833	.	.	259
2	7	.	.	386
2	7.25	.	.	412
2	7.5	.	.	322
2	7.75	.	.	267
2	8	.	.	220
2	8.25	.	.	151
2	8.5	.	.	134
2	8.75	.	.	111
2	9	.	.	98.6
2	9.5	.	.	64.2
2	10	.	.	47.3
2	11	.	.	33.2
3	0	2	2.66	.
3	0.0833	.	.	577
3	0.167	.	.	506
3	0.333	.	.	380
3	0.5	.	.	309
3	0.667	.	.	247
3	0.833	.	.	204
3	1	.	.	176
3	1.25	.	.	130
3	1.5	.	.	104
3	1.75	.	.	84.5
3	2	.	.	69.3
3	2.25	.	.	60.3
3	2.5	.	.	47.1
3	2.75	.	.	39.4
3	3	.	.	30.7
3	3.5	.	.	19.1
3	4	.	.	0
3	5	.	.	14.9
3	6	1	7	.
3	6.0833	.	.	0
3	6.167	.	.	0
3	6.333	.	.	29.3
3	6.5	.	.	97.7
3	6.667	.	.	186
3	6.833	.	.	268
3	7	.	.	282
3	7.25	.	.	265
3	7.5	.	.	232
3	7.75	.	.	222
3	8	.	.	186
3	8.25	.	.	168
3	8.5	.	.	159
3	8.75	.	.	139
3	9	.	.	125
3	9.5	.	.	91.4
3	10	.	.	80.1
3	11	.	.	51.2
4	0	2	2.31	.
4	0.0833	.	.	513
4	0.167	.	.	484
4	0.333	.	.	370
4	0.5	.	.	306
4	0.667	.	.	257
4	0.833	.	.	208
4	1	.	.	181
4	1.25	.	.	144
4	1.5	.	.	115
4	1.75	.	.	92.2
4	2	.	.	78.8
4	2.25	.	.	65.1
4	2.5	.	.	56.6
4	2.75	.	.	48.4
4	3	.	.	42
4	3.5	.	.	33.7
4	4	.	.	28.9
4	5	.	.	16.5
4	6	1	7	.
4	6.0833	.	.	0
4	6.167	.	.	0
4	6.333	.	.	0
4	6.5	.	.	7.6
4	6.667	.	.	61.5
4	6.833	.	.	156
4	7	.	.	177
4	7.25	.	.	173
4	7.5	.	.	164
4	7.75	.	.	167
4	8	.	.	155
4	8.25	.	.	146
4	8.5	.	.	109
4	8.75	.	.	97.5
4	9	.	.	93.8
4	9.5	.	.	77
4	10	.	.	66.9
4	11	.	.	51.2
5	0	2	2.17	.
5	0.0833	.	.	436
5	0.167	.	.	433
5	0.333	.	.	266
5	0.5	.	.	202
5	0.667	.	.	187
5	0.833	.	.	172
5	1	.	.	144
5	1.25	.	.	107
5	1.5	.	.	85.6
5	1.75	.	.	69.2
5	2	.	.	54.4
5	2.25	.	.	41.9
5	2.5	.	.	40.7
5	2.75	.	.	28.3
5	3	.	.	26.5
5	3.5	.	.	19.8
5	4	.	.	17.4
5	5	.	.	7.3
5	6	1	7	.
5	6.0833	.	.	0
5	6.167	.	.	0
5	6.333	.	.	0
5	6.5	.	.	2.7
5	6.667	.	.	7.3
5	6.833	.	.	23.8
5	7	.	.	40.4
5	7.25	.	.	49.6
5	7.5	.	.	50
5	7.75	.	.	54.4
5	8	.	.	61.7
5	8.25	.	.	76.7
5	8.5	.	.	89.8
5	8.75	.	.	95.9
5	9	.	.	97.5
5	9.5	.	.	92.1
5	10	.	.	80.4
5	11	.	.	81.1
6	0	2	2.31	.
6	0.0833	.	.	619
6	0.167	.	.	544
6	0.333	.	.	459
6	0.5	.	.	327
6	0.667	.	.	261
6	0.833	.	.	241
6	1	.	.	196
6	1.25	.	.	141
6	1.5	.	.	110
6	1.75	.	.	82.1
6	2	.	.	62.7
6	2.25	.	.	57
6	2.5	.	.	44.9
6	2.75	.	.	38.6
6	3	.	.	34.7
6	3.5	.	.	24.9
6	4	.	.	17.6
6	5	.	.	12.1
6	6	1	7	.
6	6.0833	.	.	0
6	6.167	.	.	0
6	6.333	.	.	21.2
6	6.5	.	.	98.8
6	6.667	.	.	198
6	6.833	.	.	253
6	7	.	.	339
6	7.25	.	.	325
6	7.5	.	.	248
6	7.75	.	.	254
6	8	.	.	214
6	8.25	.	.	240
6	8.5	.	.	215
6	8.75	.	.	196
6	9	.	.	165
6	9.5	.	.	156
6	10	.	.	141
6	11	.	.	104
7	0	2	2.1	.
7	0.0833	.	.	732
7	0.167	.	.	547
7	0.333	.	.	403
7	0.5	.	.	291
7	0.667	.	.	220
7	0.833	.	.	182
7	1	.	.	144
7	1.25	.	.	103
7	1.5	.	.	76.3
7	1.75	.	.	57.7
7	2	.	.	43.6
7	2.25	.	.	38
7	2.5	.	.	29.4
7	2.75	.	.	24.8
7	3	.	.	21.5
7	3.5	.	.	15.6
7	4	.	.	12.2
7	5	.	.	6.9
7	6	1	7	.
7	6.0833	.	.	0
7	6.167	.	.	0
7	6.333	.	.	29.3
7	6.5	.	.	74.8
7	6.667	.	.	128
7	6.833	.	.	158
7	7	.	.	198
7	7.25	.	.	234
7	7.5	.	.	198
7	7.75	.	.	180
7	8	.	.	176
7	8.25	.	.	181
7	8.5	.	.	147
7	8.75	.	.	124
7	9	.	.	103
7	9.5	.	.	78.5
7	10	.	.	57.3
7	11	.	.	29.9
8	0	2	2.73	.
8	0.0833	.	.	786
8	0.167	.	.	645
8	0.333	.	.	453
8	0.5	.	.	358
8	0.667	.	.	290
8	0.833	.	.	250
8	1	.	.	198
8	1.25	.	.	165
8	1.5	.	.	120
8	1.75	.	.	100
8	2	.	.	91.9
8	2.25	.	.	77.1
8	2.5	.	.	75.1
8	2.75	.	.	51.5
8	3	.	.	40
8	3.5	.	.	36.6
8	4	.	.	27.3
8	5	.	.	17.3
8	6	1	7	.
8	6.0833	.	.	0
8	6.167	.	.	0
8	6.333	.	.	0
8	6.5	.	.	3.6
8	6.667	.	.	23.8
8	6.833	.	.	85
8	7	.	.	105
8	7.25	.	.	124
8	7.5	.	.	132
8	7.75	.	.	134
8	8	.	.	164
8	8.25	.	.	183
8	8.5	.	.	193
8	8.75	.	.	180
8	9	.	.	137
8	9.5	.	.	122
8	10	.	.	105
8	11	.	.	66.9
