id	time	amt	dv
100	0	100	 . 
100	0.5	.	0.0337233
100	1	.	0.0603408
100	2	.	0.111624
100	3	.	0.147443
100	6	.	0.333597
100	9	.	0.489086
100	12	.	0.640877
100	24	.	1.1719
100	36	.	1.15854
100	48	.	1.0951
100	72	.	1.081
1	0	100	 . 
1	24	.	8.80131
1	36	.	9.93068
1	48	.	7.40854
1	72	.	7.26859
1	96	.	6.97259
1	120	.	6.20336
2	0	100	 . 
2	0.5	.	0.147521
2	2	.	0.711278
2	3	.	0.973443
2	6	.	1.76736
2	12	.	3.63732
2	24	.	4.09059
2	36	.	3.35963
2	48	.	2.82699
2	72	.	2.17943
2	96	.	1.40276
2	120	.	1.31759
3	0	120	 . 
3	3	.	3.1012
3	6	.	6.44783
3	9	.	11.9786
3	24	.	7.63507
3	36	.	4.34715
3	48	.	3.4498
3	72	.	1.67402
3	96	.	0.662574
3	120	.	0.431849
4	0	60	 . 
4	3	.	0.436913
4	6	.	0.713476
4	9	.	0.600344
4	12	.	0.73749
4	24	.	0.69708
4	36	.	0.625084
4	48	.	0.656964
4	72	.	0.704851
4	96	.	0.49855
4	120	.	0.461203
5	0	113	 . 
5	6	.	4.08884
5	12	.	3.81892
5	24	.	3.40009
5	36	.	3.42772
5	48	.	2.33524
5	72	.	1.85354
5	96	.	1.17091
5	120	.	0.925131
6	0	90	 . 
6	3	.	6.51119
6	6	.	8.17496
6	9	.	8.12313
6	12	.	9.55978
6	24	.	6.11195
6	36	.	4.46168
6	48	.	2.96803
6	72	.	1.5139
6	96	.	0.649653
7	0	135	 . 
7	2	.	0.50608
7	3	.	0.755585
7	6	.	1.16673
7	9	.	1.82935
7	12	.	2.13199
7	24	.	3.17562
7	36	.	3.81968
7	48	.	4.35927
7	72	.	7.50595
7	96	.	2.16295
7	120	.	0.563902
8	0	75	 . 
8	0.5	.	0.0724965
8	1	.	0.169854
8	2	.	0.346451
8	3	.	0.6977
8	3	.	0.659112
8	6	.	1.35049
8	6	.	1.09824
8	9	.	1.37302
8	9	.	1.4625
8	12	.	1.26157
8	12	.	1.45064
8	24	.	1.53377
8	36	.	1.28363
8	48	.	1.24815
8	72	.	1.48381
8	96	.	1.09389
8	120	.	1.02918
9	0	105	 . 
9	24	.	2.81007
9	36	.	3.87336
9	48	.	3.48994
9	72	.	3.2941
9	96	.	3.99705
9	120	.	3.89326
11	0	123	 . 
11	1.5	.	0.0639035
11	3	.	0.129295
11	6	.	0.21848
11	12	.	0.373248
11	24	.	0.819421
11	36	.	1.23462
11	48	.	1.88668
11	72	.	3.62597
11	96	.	3.54078
11	120	.	3.05656
12	0	113	 . 
12	1.5	.	0.179757
12	3	.	0.452045
12	6	.	0.688426
12	9	.	1.21328
12	24	.	3.0512
12	36	.	2.9983
12	48	.	3.48661
12	72	.	2.74346
12	96	.	2.63267
12	120	.	2.43295
13	0	113	 . 
13	1.5	.	0.823331
13	3	.	2.34276
13	6	.	4.97216
13	9	.	5.80808
13	24	.	5.14896
13	36	.	4.06031
13	48	.	4.39175
13	72	.	2.44193
13	96	.	1.9921
13	120	.	1.57012
14	0	75	 . 
14	0.5	.	0.241183
14	1	.	0.596389
14	2	.	1.0538
14	3	.	1.44743
14	6	.	2.51101
14	9	.	3.16164
14	24	.	3.25984
14	36	.	3.91501
14	48	.	3.34108
14	72	.	3.35808
14	96	.	2.05986
15	0	85	 . 
15	1	.	0.316208
15	3	.	0.855409
15	6	.	2.05905
15	9	.	2.49555
15	24	.	7.49769
15	36	.	7.96001
15	48	.	7.65882
15	72	.	6.75181
15	96	.	7.50423
15	120	.	5.6136
16	0	87	 . 
16	24	.	2.64594
16	36	.	2.28256
16	48	.	1.09356
16	72	.	0.646797
16	96	.	0.317298
16	120	.	0.146398
17	0	117	 . 
17	24	.	5.35394
17	36	.	4.82483
17	48	.	4.3924
17	72	.	3.16433
17	96	.	2.30736
17	120	.	1.7384
18	0	112	 . 
18	24	.	7.74629
18	36	.	6.62958
18	48	.	4.15632
18	72	.	3.25862
18	96	.	2.8694
18	120	.	1.50006
19	0	95.5	 . 
19	24	.	6.28975
19	36	.	7.93987
19	48	.	7.44496
19	72	.	5.19739
19	96	.	4.79571
19	120	.	5.49296
20	0	88.5	 . 
20	24	.	2.71785
20	36	.	4.9127
20	48	.	5.12772
20	72	.	4.68943
20	96	.	3.73288
20	120	.	3.35395
21	0	93	 . 
21	24	.	12.0916
21	36	.	10.1041
21	48	.	9.37233
21	72	.	8.24195
21	96	.	7.89406
21	120	.	8.29651
22	0	87	 . 
22	24	.	2.45906
22	36	.	2.26354
22	48	.	2.72336
22	72	.	2.25266
22	96	.	2.0641
22	120	.	2.3405
23	0	110	 . 
23	24	.	2.6592
23	36	.	2.51431
23	48	.	1.93372
23	72	.	0.925192
23	96	.	0.513783
23	120	.	0.331749
24	0	115	 . 
24	24	.	1.23354
24	36	.	1.6142
24	48	.	1.90764
24	72	.	1.76608
24	96	.	3.11329
24	120	.	1.31292
25	0	112	 . 
25	24	.	1.25267
25	36	.	1.67478
25	48	.	1.47897
25	72	.	1.27943
25	96	.	1.09096
25	120	.	1.26617
26	0	120	 . 
26	24	.	4.94839
26	36	.	3.78686
26	48	.	3.6986
26	72	.	3.27476
26	96	.	2.80017
26	120	.	2.39822
27	0	120	 . 
27	24	.	16.0816
27	36	.	8.12351
27	48	.	4.02618
27	72	.	1.10729
27	96	.	0.335191
27	120	.	0.0714155
28	0	120	 . 
28	24	.	5.30465
28	36	.	8.22574
28	48	.	8.57746
28	72	.	8.3085
28	96	.	8.09265
28	120	.	6.40028
29	0	153	 . 
29	24	.	2.02824
29	36	.	8.18082
29	48	.	6.45354
29	72	.	6.50048
29	96	.	6.60195
29	120	.	5.52026
30	0	105	 . 
30	24	.	3.25929
30	36	.	2.51415
30	48	.	2.69132
30	72	.	2.19058
30	96	.	2.39878
30	120	.	2.15207
31	0	125	 . 
31	24	.	1.41185
31	36	.	1.79966
31	48	.	1.97969
31	72	.	1.64674
31	96	.	1.87592
31	120	.	20.9332
32	0	93	 . 
32	24	.	1.37361
32	36	.	1.97497
32	48	.	1.99689
32	72	.	1.58846
32	96	.	1.6355
32	120	.	1.73183
