ID	TIME	AMT	Y	YTYPE	LIMIT	CENS
1	0	50	.	.	.	.
1	0	.	59.6	2	.	0
1	0.5	.	3.72	1	.	0
1	2	.	5.17	1	.	0
1	4	.	5.3	1	.	0
1	4	.	87.2	2	.	0
1	6	.	3.58	1	.	0
1	8	.	4.03	1	.	0
1	8	.	81.9	2	.	0
1	12	.	3.02	1	.	0
1	12	.	74.3	2	.	0
1	16	.	76.2	2	.	0
1	18	.	2.17	1	.	0
1	20	.	73.8	2	.	0
1	24	.	1.8	1	1.2	1
1	24	.	71.9	2	.	0
1	28	.	64.3	2	.	0
1	30	.	1.2	1	0	1
1	32	.	64.3	2	.	0
2	0	50	.	.	.	.
2	0	.	59.9	2	.	0
2	0.5	.	1.2	1	0	1
2	2	.	2.3	1	.	0
2	4	.	4.05	1	.	0
2	4	.	73.7	2	.	0
2	6	.	3.74	1	.	0
2	8	.	4.02	1	.	0
2	8	.	73.2	2	.	0
2	12	.	4.05	1	.	0
2	12	.	74.6	2	.	0
2	16	.	74.1	2	.	0
2	18	.	2.9	1	.	0
2	20	.	69.6	2	.	0
2	24	.	2.63	1	.	0
2	24	.	66.5	2	.	0
2	28	.	71.3	2	.	0
2	30	.	1.8	1	1.2	1
2	32	.	67.4	2	.	0
3	0	50	.	.	.	.
3	0	.	53.9	2	.	0
3	0.5	.	1.2	1	0	1
3	2	.	4.07	1	.	0
3	4	.	3.96	1	.	0
3	4	.	78.7	2	.	0
3	6	.	4.97	1	.	0
3	8	.	4.24	1	.	0
3	8	.	79.7	2	.	0
3	12	.	3.78	1	.	0
3	12	.	80.1	2	.	0
3	16	.	76.2	2	.	0
3	18	.	3.17	1	.	0
3	20	.	72.9	2	.	0
3	24	.	2.25	1	.	0
3	24	.	70.7	2	.	0
3	28	.	67.3	2	.	0
3	30	.	1.8	1	1.2	1
3	32	.	64.3	2	.	0
4	0	50	.	.	.	.
4	0	.	51.9	2	.	0
4	0.5	.	1.91	1	.	0
4	2	.	5.11	1	.	0
4	4	.	3.79	1	.	0
4	4	.	78.5	2	.	0
4	6	.	4.67	1	.	0
4	8	.	2.95	1	.	0
4	8	.	76.5	2	.	0
4	12	.	2.41	1	.	0
4	12	.	73.8	2	.	0
4	16	.	70.4	2	.	0
4	18	.	1.8	1	1.2	1
4	20	.	65.4	2	.	0
4	24	.	1.2	1	0	1
4	24	.	65.7	2	.	0
4	28	.	62.7	2	.	0
4	30	.	1.2	1	0	1
4	32	.	64.8	2	.	0
5	0	50	.	.	.	.
5	0	.	57.6	2	.	0
5	0.5	.	4.2	1	.	0
5	2	.	6.96	1	.	0
5	4	.	4.64	1	.	0
5	4	.	93.8	2	.	0
5	6	.	5.7	1	.	0
5	8	.	5.68	1	.	0
5	8	.	91.8	2	.	0
5	12	.	3.76	1	.	0
5	12	.	88.1	2	.	0
5	16	.	84.7	2	.	0
5	18	.	2.79	1	.	0
5	20	.	82.3	2	.	0
5	24	.	1.96	1	.	0
5	24	.	74.4	2	.	0
5	28	.	74.8	2	.	0
5	30	.	1.8	1	1.2	1
5	32	.	74.9	2	.	0
6	0	50	.	.	.	.
6	0	.	62.9	2	.	0
6	0.5	.	1.98	1	.	0
6	2	.	5.15	1	.	0
6	4	.	4.6	1	.	0
6	4	.	98.2	2	.	0
6	6	.	4.12	1	.	0
6	8	.	6.14	1	.	0
6	8	.	93.8	2	.	0
6	12	.	3.35	1	.	0
6	12	.	86.9	2	.	0
6	16	.	83.6	2	.	0
6	18	.	1.8	1	1.2	1
6	20	.	80.6	2	.	0
6	24	.	2.37	1	.	0
6	24	.	78.9	2	.	0
6	28	.	75	2	.	0
6	30	.	1.2	1	0	1
6	32	.	71.6	2	.	0
7	0	50	.	.	.	.
7	0	.	66.7	2	.	0
7	0.5	.	3.08	1	.	0
7	2	.	4.37	1	.	0
7	4	.	4.62	1	.	0
7	4	.	85.3	2	.	0
7	6	.	4.88	1	.	0
7	8	.	3.2	1	.	0
7	8	.	84.5	2	.	0
7	12	.	2.88	1	.	0
7	12	.	80.2	2	.	0
7	16	.	75.7	2	.	0
7	18	.	2.54	1	.	0
7	20	.	79.5	2	.	0
7	24	.	1.2	1	0	1
7	24	.	74.5	2	.	0
7	28	.	72.2	2	.	0
7	30	.	1.2	1	0	1
7	32	.	72.9	2	.	0
8	0	50	.	.	.	.
8	0	.	63.2	2	.	0
8	0.5	.	4.46	1	.	0
8	2	.	3.44	1	.	0
8	4	.	4.77	1	.	0
8	4	.	85.9	2	.	0
8	6	.	2.52	1	.	0
8	8	.	2.97	1	.	0
8	8	.	82	2	.	0
8	12	.	1.94	1	.	0
8	12	.	80.2	2	.	0
8	16	.	75	2	.	0
8	18	.	1.8	1	1.2	1
8	20	.	77.6	2	.	0
8	24	.	1.8	1	1.2	1
8	24	.	71.4	2	.	0
8	28	.	73.3	2	.	0
8	30	.	1.2	1	0	1
8	32	.	71.5	2	.	0
9	0	50	.	.	.	.
9	0	.	57.5	2	.	0
9	0.5	.	1.2	1	0	1
9	2	.	4.51	1	.	0
9	4	.	3.12	1	.	0
9	4	.	73.1	2	.	0
9	6	.	4.06	1	.	0
9	8	.	2.85	1	.	0
9	8	.	74.6	2	.	0
9	12	.	3.39	1	.	0
9	12	.	69.7	2	.	0
9	16	.	70.3	2	.	0
9	18	.	2.12	1	.	0
9	20	.	66.9	2	.	0
9	24	.	1.2	1	0	1
9	24	.	65.7	2	.	0
9	28	.	58.3	2	.	0
9	30	.	1.2	1	0	1
9	32	.	63.7	2	.	0
10	0	50	.	.	.	.
10	0	.	64.7	2	.	0
10	0.5	.	2.45	1	.	0
10	2	.	4.41	1	.	0
10	4	.	5.19	1	.	0
10	4	.	80.2	2	.	0
10	6	.	4.14	1	.	0
10	8	.	4.4	1	.	0
10	8	.	85.3	2	.	0
10	12	.	2.69	1	.	0
10	12	.	84.1	2	.	0
10	16	.	80.5	2	.	0
10	18	.	1.86	1	.	0
10	20	.	76.1	2	.	0
10	24	.	1.8	1	1.2	1
10	24	.	72.8	2	.	0
10	28	.	71.5	2	.	0
10	30	.	1.8	1	1.2	1
10	32	.	67.6	2	.	0
11	0	50	.	.	.	.
11	0	.	55.9	2	.	0
11	0.5	.	2.39	1	.	0
11	2	.	4.37	1	.	0
11	4	.	5.11	1	.	0
11	4	.	90.3	2	.	0
11	6	.	4.73	1	.	0
11	8	.	3.81	1	.	0
11	8	.	83.4	2	.	0
11	12	.	2.88	1	.	0
11	12	.	79.3	2	.	0
11	16	.	74	2	.	0
11	18	.	1.86	1	.	0
11	20	.	70.9	2	.	0
11	24	.	1.85	1	.	0
11	24	.	72.3	2	.	0
11	28	.	67.3	2	.	0
11	30	.	1.2	1	0	1
11	32	.	62.9	2	.	0
12	0	50	.	.	.	.
12	0	.	58.4	2	.	0
12	0.5	.	3.82	1	.	0
12	2	.	5	1	.	0
12	4	.	4.26	1	.	0
12	4	.	80.5	2	.	0
12	6	.	3.69	1	.	0
12	8	.	3.29	1	.	0
12	8	.	75.8	2	.	0
12	12	.	2.48	1	.	0
12	12	.	76.3	2	.	0
12	16	.	68.7	2	.	0
12	18	.	1.2	1	0	1
12	20	.	66.8	2	.	0
12	24	.	1.8	1	1.2	1
12	24	.	70.3	2	.	0
12	28	.	68.9	2	.	0
12	30	.	1.2	1	0	1
12	32	.	62.6	2	.	0
13	0	50	.	.	.	.
13	0	.	59.7	2	.	0
13	0.5	.	2.14	1	.	0
13	2	.	4.44	1	.	0
13	4	.	6.01	1	.	0
13	4	.	88	2	.	0
13	6	.	4.16	1	.	0
13	8	.	4.27	1	.	0
13	8	.	85.7	2	.	0
13	12	.	3.61	1	.	0
13	12	.	81.2	2	.	0
13	16	.	80.7	2	.	0
13	18	.	2.21	1	.	0
13	20	.	80.4	2	.	0
13	24	.	1.8	1	1.2	1
13	24	.	72.6	2	.	0
13	28	.	73.3	2	.	0
13	30	.	1.2	1	0	1
13	32	.	71.5	2	.	0
14	0	50	.	.	.	.
14	0	.	60	2	.	0
14	0.5	.	2.24	1	.	0
14	2	.	2.2	1	.	0
14	4	.	4.85	1	.	0
14	4	.	81.4	2	.	0
14	6	.	2.53	1	.	0
14	8	.	3.54	1	.	0
14	8	.	74.5	2	.	0
14	12	.	2.6	1	.	0
14	12	.	71.7	2	.	0
14	16	.	73	2	.	0
14	18	.	2.08	1	.	0
14	20	.	70.4	2	.	0
14	24	.	1.2	1	0	1
14	24	.	68.6	2	.	0
14	28	.	67	2	.	0
14	30	.	1.8	1	1.2	1
14	32	.	63.7	2	.	0
15	0	50	.	.	.	.
15	0	.	62.8	2	.	0
15	0.5	.	1.2	1	0	1
15	2	.	3.56	1	.	0
15	4	.	6.5	1	.	0
15	4	.	90.6	2	.	0
15	6	.	2.77	1	.	0
15	8	.	4.59	1	.	0
15	8	.	90.4	2	.	0
15	12	.	3.47	1	.	0
15	12	.	85.5	2	.	0
15	16	.	82.8	2	.	0
15	18	.	2.53	1	.	0
15	20	.	76.4	2	.	0
15	24	.	2.13	1	.	0
15	24	.	70.6	2	.	0
15	28	.	70.1	2	.	0
15	30	.	1.2	1	0	1
15	32	.	68.1	2	.	0
16	0	50	.	.	.	.
16	0	.	58.2	2	.	0
16	0.5	.	2.97	1	.	0
16	2	.	5.55	1	.	0
16	4	.	3.26	1	.	0
16	4	.	101	2	.	0
16	6	.	3.45	1	.	0
16	8	.	3.53	1	.	0
16	8	.	97.2	2	.	0
16	12	.	1.9	1	.	0
16	12	.	92.6	2	.	0
16	16	.	85.3	2	.	0
16	18	.	2.49	1	.	0
16	20	.	84	2	.	0
16	24	.	1.8	1	1.2	1
16	24	.	81.2	2	.	0
16	28	.	74.2	2	.	0
16	30	.	1.2	1	0	1
16	32	.	72.8	2	.	0
17	0	50	.	.	.	.
17	0	.	62	2	.	0
17	0.5	.	3.51	1	.	0
17	2	.	7.6	1	.	0
17	4	.	6.33	1	.	0
17	4	.	91.6	2	.	0
17	6	.	4.41	1	.	0
17	8	.	4.26	1	.	0
17	8	.	87.4	2	.	0
17	12	.	3.52	1	.	0
17	12	.	84.8	2	.	0
17	16	.	83.1	2	.	0
17	18	.	2.48	1	.	0
17	20	.	79.2	2	.	0
17	24	.	1.95	1	.	0
17	24	.	76.5	2	.	0
17	28	.	73.4	2	.	0
17	30	.	1.8	1	1.2	1
17	32	.	68.4	2	.	0
18	0	50	.	.	.	.
18	0	.	57.5	2	.	0
18	0.5	.	1.9	1	.	0
18	2	.	3.54	1	.	0
18	4	.	4.35	1	.	0
18	4	.	87.9	2	.	0
18	6	.	5.19	1	.	0
18	8	.	4.39	1	.	0
18	8	.	87.4	2	.	0
18	12	.	3.22	1	.	0
18	12	.	84	2	.	0
18	16	.	81	2	.	0
18	18	.	2.32	1	.	0
18	20	.	72.6	2	.	0
18	24	.	2	1	.	0
18	24	.	73.2	2	.	0
18	28	.	71	2	.	0
18	30	.	1.8	1	1.2	1
18	32	.	71.6	2	.	0
19	0	50	.	.	.	.
19	0	.	63.2	2	.	0
19	0.5	.	2.87	1	.	0
19	2	.	5.14	1	.	0
19	4	.	4.75	1	.	0
19	4	.	86.7	2	.	0
19	6	.	3.48	1	.	0
19	8	.	3.62	1	.	0
19	8	.	80.1	2	.	0
19	12	.	2.14	1	.	0
19	12	.	79.9	2	.	0
19	16	.	80.2	2	.	0
19	18	.	1.93	1	.	0
19	20	.	76.3	2	.	0
19	24	.	1.2	1	0	1
19	24	.	72	2	.	0
19	28	.	65.7	2	.	0
19	30	.	1.8	1	1.2	1
19	32	.	67.4	2	.	0
20	0	50	.	.	.	.
20	0	.	59.3	2	.	0
20	0.5	.	2.21	1	.	0
20	2	.	5.32	1	.	0
20	4	.	4.61	1	.	0
20	4	.	78.7	2	.	0
20	6	.	5.5	1	.	0
20	8	.	4.07	1	.	0
20	8	.	73.7	2	.	0
20	12	.	3.15	1	.	0
20	12	.	70.9	2	.	0
20	16	.	69.2	2	.	0
20	18	.	2.53	1	.	0
20	20	.	69.9	2	.	0
20	24	.	1.87	1	.	0
20	24	.	69.4	2	.	0
20	28	.	68.4	2	.	0
20	30	.	1.2	1	0	1
20	32	.	67.3	2	.	0
21	0	50	.	.	.	.
21	0	.	59.2	2	.	0
21	0.5	.	1.2	1	0	1
21	2	.	1.8	1	1.2	1
21	4	.	3.32	1	.	0
21	4	.	76.2	2	.	0
21	6	.	4.42	1	.	0
21	8	.	3.7	1	.	0
21	8	.	76.3	2	.	0
21	12	.	3.29	1	.	0
21	12	.	76	2	.	0
21	16	.	73.5	2	.	0
21	18	.	1.8	1	1.2	1
21	20	.	73.6	2	.	0
21	24	.	1.8	1	1.2	1
21	24	.	68.9	2	.	0
21	28	.	69.8	2	.	0
21	30	.	1.2	1	0	1
21	32	.	63.5	2	.	0
22	0	50	.	.	.	.
22	0	.	59	2	.	0
22	0.5	.	2.75	1	.	0
22	2	.	4.89	1	.	0
22	4	.	4.63	1	.	0
22	4	.	88.4	2	.	0
22	6	.	4.64	1	.	0
22	8	.	3.62	1	.	0
22	8	.	86.7	2	.	0
22	12	.	2.74	1	.	0
22	12	.	80.3	2	.	0
22	16	.	76.8	2	.	0
22	18	.	1.95	1	.	0
22	20	.	74.6	2	.	0
22	24	.	1.8	1	1.2	1
22	24	.	73.9	2	.	0
22	28	.	71.3	2	.	0
22	30	.	1.2	1	0	1
22	32	.	66.4	2	.	0
23	0	50	.	.	.	.
23	0	.	58.1	2	.	0
23	0.5	.	1.2	1	0	1
23	2	.	4.58	1	.	0
23	4	.	4.26	1	.	0
23	4	.	76.8	2	.	0
23	6	.	3.71	1	.	0
23	8	.	3.89	1	.	0
23	8	.	78.2	2	.	0
23	12	.	3.26	1	.	0
23	12	.	72.8	2	.	0
23	16	.	70	2	.	0
23	18	.	2.03	1	.	0
23	20	.	70.2	2	.	0
23	24	.	1.8	1	1.2	1
23	24	.	65.9	2	.	0
23	28	.	66	2	.	0
23	30	.	1.2	1	0	1
23	32	.	65.9	2	.	0
24	0	50	.	.	.	.
24	0	.	63.7	2	.	0
24	0.5	.	4.3	1	.	0
24	2	.	5.71	1	.	0
24	4	.	5.95	1	.	0
24	4	.	100	2	.	0
24	6	.	4.69	1	.	0
24	8	.	5.12	1	.	0
24	8	.	93.1	2	.	0
24	12	.	2.28	1	.	0
24	12	.	87.4	2	.	0
24	16	.	87.2	2	.	0
24	18	.	1.94	1	.	0
24	20	.	86.7	2	.	0
24	24	.	1.98	1	.	0
24	24	.	82.2	2	.	0
24	28	.	80.7	2	.	0
24	30	.	1.8	1	1.2	1
24	32	.	76.7	2	.	0
25	0	50	.	.	.	.
25	0	.	55.5	2	.	0
25	0.5	.	2.29	1	.	0
25	2	.	4.72	1	.	0
25	4	.	4.06	1	.	0
25	4	.	84.1	2	.	0
25	6	.	2.39	1	.	0
25	8	.	3.56	1	.	0
25	8	.	83.7	2	.	0
25	12	.	2.33	1	.	0
25	12	.	78.2	2	.	0
25	16	.	77.9	2	.	0
25	18	.	1.94	1	.	0
25	20	.	71.3	2	.	0
25	24	.	1.2	1	0	1
25	24	.	75.7	2	.	0
25	28	.	70.2	2	.	0
25	30	.	1.2	1	0	1
25	32	.	65	2	.	0
26	0	50	.	.	.	.
26	0	.	60.3	2	.	0
26	0.5	.	2.05	1	.	0
26	2	.	4.46	1	.	0
26	4	.	5.51	1	.	0
26	4	.	81.6	2	.	0
26	6	.	4.05	1	.	0
26	8	.	4.14	1	.	0
26	8	.	81.3	2	.	0
26	12	.	2.28	1	.	0
26	12	.	76.2	2	.	0
26	16	.	74.6	2	.	0
26	18	.	2.11	1	.	0
26	20	.	72.1	2	.	0
26	24	.	1.8	1	1.2	1
26	24	.	73	2	.	0
26	28	.	70.1	2	.	0
26	30	.	1.2	1	0	1
26	32	.	68	2	.	0
27	0	50	.	.	.	.
27	0	.	62	2	.	0
27	0.5	.	4.8	1	.	0
27	2	.	4.49	1	.	0
27	4	.	4.44	1	.	0
27	4	.	79.9	2	.	0
27	6	.	4.19	1	.	0
27	8	.	3.96	1	.	0
27	8	.	73.3	2	.	0
27	12	.	2.45	1	.	0
27	12	.	77.2	2	.	0
27	16	.	70.1	2	.	0
27	18	.	2.53	1	.	0
27	20	.	66.4	2	.	0
27	24	.	1.8	1	1.2	1
27	24	.	69.4	2	.	0
27	28	.	69	2	.	0
27	30	.	1.2	1	0	1
27	32	.	68.6	2	.	0
28	0	50	.	.	.	.
28	0	.	63.5	2	.	0
28	0.5	.	2.53	1	.	0
28	2	.	6.25	1	.	0
28	4	.	7.82	1	.	0
28	4	.	86.9	2	.	0
28	6	.	6.27	1	.	0
28	8	.	6.56	1	.	0
28	8	.	86.9	2	.	0
28	12	.	3.77	1	.	0
28	12	.	84.9	2	.	0
28	16	.	83.9	2	.	0
28	18	.	2.44	1	.	0
28	20	.	76.1	2	.	0
28	24	.	1.8	1	1.2	1
28	24	.	72.5	2	.	0
28	28	.	72.2	2	.	0
28	30	.	1.2	1	0	1
28	32	.	67.5	2	.	0
29	0	50	.	.	.	.
29	0	.	59.6	2	.	0
29	0.5	.	3.99	1	.	0
29	2	.	5.8	1	.	0
29	4	.	7.61	1	.	0
29	4	.	88.3	2	.	0
29	6	.	5.04	1	.	0
29	8	.	4.18	1	.	0
29	8	.	86.7	2	.	0
29	12	.	3.78	1	.	0
29	12	.	84	2	.	0
29	16	.	82.5	2	.	0
29	18	.	3.22	1	.	0
29	20	.	79.5	2	.	0
29	24	.	1.87	1	.	0
29	24	.	74.4	2	.	0
29	28	.	75.2	2	.	0
29	30	.	1.2	1	0	1
29	32	.	71.4	2	.	0
30	0	50	.	.	.	.
30	0	.	55.9	2	.	0
30	0.5	.	2.79	1	.	0
30	2	.	4.81	1	.	0
30	4	.	4.02	1	.	0
30	4	.	90.2	2	.	0
30	6	.	5.18	1	.	0
30	8	.	4.24	1	.	0
30	8	.	83.8	2	.	0
30	12	.	2.75	1	.	0
30	12	.	77.1	2	.	0
30	16	.	83.2	2	.	0
30	18	.	1.8	1	1.2	1
30	20	.	76.6	2	.	0
30	24	.	1.8	1	1.2	1
30	24	.	69.8	2	.	0
30	28	.	69.3	2	.	0
30	30	.	1.2	1	0	1
30	32	.	65.2	2	.	0
31	0	50	.	.	.	.
31	0	.	55.9	2	.	0
31	0.5	.	3.05	1	.	0
31	2	.	4.85	1	.	0
31	4	.	3.99	1	.	0
31	4	.	82.6	2	.	0
31	6	.	4.76	1	.	0
31	8	.	4.06	1	.	0
31	8	.	80	2	.	0
31	12	.	3.01	1	.	0
31	12	.	75.6	2	.	0
31	16	.	72.4	2	.	0
31	18	.	2.38	1	.	0
31	20	.	69.8	2	.	0
31	24	.	2.05	1	.	0
31	24	.	67.3	2	.	0
31	28	.	67.6	2	.	0
31	30	.	1.8	1	1.2	1
31	32	.	62.8	2	.	0
32	0	50	.	.	.	.
32	0	.	53.6	2	.	0
32	0.5	.	1.8	1	1.2	1
32	2	.	4.67	1	.	0
32	4	.	5.93	1	.	0
32	4	.	80.8	2	.	0
32	6	.	4.71	1	.	0
32	8	.	3.09	1	.	0
32	8	.	77.8	2	.	0
32	12	.	3.04	1	.	0
32	12	.	76.9	2	.	0
32	16	.	76.3	2	.	0
32	18	.	3.17	1	.	0
32	20	.	73.2	2	.	0
32	24	.	2.22	1	.	0
32	24	.	69.7	2	.	0
32	28	.	65.4	2	.	0
32	30	.	1.8	1	1.2	1
32	32	.	67.8	2	.	0
33	0	50	.	.	.	.
33	0	.	55.3	2	.	0
33	0.5	.	4.73	1	.	0
33	2	.	6.86	1	.	0
33	4	.	5.68	1	.	0
33	4	.	86.9	2	.	0
33	6	.	5.53	1	.	0
33	8	.	3.91	1	.	0
33	8	.	83.7	2	.	0
33	12	.	2.67	1	.	0
33	12	.	79.3	2	.	0
33	16	.	75.2	2	.	0
33	18	.	2.12	1	.	0
33	20	.	76.5	2	.	0
33	24	.	1.84	1	.	0
33	24	.	74.1	2	.	0
33	28	.	69.3	2	.	0
33	30	.	1.8	1	1.2	1
33	32	.	66	2	.	0
34	0	50	.	.	.	.
34	0	.	57	2	.	0
34	0.5	.	4.11	1	.	0
34	2	.	4.55	1	.	0
34	4	.	4.73	1	.	0
34	4	.	83.4	2	.	0
34	6	.	4.17	1	.	0
34	8	.	4.79	1	.	0
34	8	.	84.5	2	.	0
34	12	.	4.28	1	.	0
34	12	.	75.7	2	.	0
34	16	.	74	2	.	0
34	18	.	2.03	1	.	0
34	20	.	70.7	2	.	0
34	24	.	2.1	1	.	0
34	24	.	69.5	2	.	0
34	28	.	65.4	2	.	0
34	30	.	1.2	1	0	1
34	32	.	65.7	2	.	0
35	0	50	.	.	.	.
35	0	.	62.3	2	.	0
35	0.5	.	1.2	1	0	1
35	2	.	2.32	1	.	0
35	4	.	3.27	1	.	0
35	4	.	79.5	2	.	0
35	6	.	3.63	1	.	0
35	8	.	3.64	1	.	0
35	8	.	80.8	2	.	0
35	12	.	4.07	1	.	0
35	12	.	82.1	2	.	0
35	16	.	78.5	2	.	0
35	18	.	2.31	1	.	0
35	20	.	75.2	2	.	0
35	24	.	1.8	1	1.2	1
35	24	.	78.2	2	.	0
35	28	.	73.7	2	.	0
35	30	.	1.2	1	0	1
35	32	.	68.4	2	.	0
36	0	50	.	.	.	.
36	0	.	60.6	2	.	0
36	0.5	.	2.99	1	.	0
36	2	.	5.22	1	.	0
36	4	.	4.92	1	.	0
36	4	.	80.3	2	.	0
36	6	.	4.15	1	.	0
36	8	.	4.07	1	.	0
36	8	.	80.8	2	.	0
36	12	.	3.7	1	.	0
36	12	.	73.6	2	.	0
36	16	.	68.4	2	.	0
36	18	.	1.2	1	0	1
36	20	.	67	2	.	0
36	24	.	1.8	1	1.2	1
36	24	.	67.7	2	.	0
36	28	.	67.3	2	.	0
36	30	.	1.2	1	0	1
36	32	.	63.9	2	.	0
37	0	50	.	.	.	.
37	0	.	51.5	2	.	0
37	0.5	.	5.45	1	.	0
37	2	.	5.88	1	.	0
37	4	.	5.5	1	.	0
37	4	.	70.9	2	.	0
37	6	.	3.69	1	.	0
37	8	.	2.09	1	.	0
37	8	.	63.4	2	.	0
37	12	.	3.44	1	.	0
37	12	.	67.4	2	.	0
37	16	.	66.4	2	.	0
37	18	.	1.97	1	.	0
37	20	.	61	2	.	0
37	24	.	1.8	1	1.2	1
37	24	.	61.4	2	.	0
37	28	.	56.8	2	.	0
37	30	.	1.2	1	0	1
37	32	.	55.9	2	.	0
38	0	50	.	.	.	.
38	0	.	58.6	2	.	0
38	0.5	.	1.2	1	0	1
38	2	.	3.14	1	.	0
38	4	.	3.55	1	.	0
38	4	.	82.8	2	.	0
38	6	.	3.78	1	.	0
38	8	.	4.11	1	.	0
38	8	.	85.5	2	.	0
38	12	.	3.99	1	.	0
38	12	.	79.8	2	.	0
38	16	.	74.2	2	.	0
38	18	.	1.88	1	.	0
38	20	.	76.3	2	.	0
38	24	.	1.8	1	1.2	1
38	24	.	71.3	2	.	0
38	28	.	69.7	2	.	0
38	30	.	1.2	1	0	1
38	32	.	69.1	2	.	0
39	0	50	.	.	.	.
39	0	.	59.1	2	.	0
39	0.5	.	1.2	1	0	1
39	2	.	3.38	1	.	0
39	4	.	4.68	1	.	0
39	4	.	77.4	2	.	0
39	6	.	3.83	1	.	0
39	8	.	4.68	1	.	0
39	8	.	82.8	2	.	0
39	12	.	3.92	1	.	0
39	12	.	80.4	2	.	0
39	16	.	73.6	2	.	0
39	18	.	2.51	1	.	0
39	20	.	71.5	2	.	0
39	24	.	1.93	1	.	0
39	24	.	71.9	2	.	0
39	28	.	68.8	2	.	0
39	30	.	1.8	1	1.2	1
39	32	.	66.5	2	.	0
40	0	50	.	.	.	.
40	0	.	64.5	2	.	0
40	0.5	.	1.83	1	.	0
40	2	.	3.73	1	.	0
40	4	.	5.22	1	.	0
40	4	.	91.5	2	.	0
40	6	.	5.59	1	.	0
40	8	.	3.81	1	.	0
40	8	.	85.9	2	.	0
40	12	.	3.4	1	.	0
40	12	.	88.4	2	.	0
40	16	.	80.1	2	.	0
40	18	.	2	1	.	0
40	20	.	77.4	2	.	0
40	24	.	1.8	1	1.2	1
40	24	.	74.6	2	.	0
40	28	.	73.1	2	.	0
40	30	.	1.2	1	0	1
40	32	.	70.4	2	.	0
41	0	50	.	.	.	.
41	0	.	59.1	2	.	0
41	0.5	.	2.45	1	.	0
41	2	.	4.74	1	.	0
41	4	.	5.22	1	.	0
41	4	.	82.3	2	.	0
41	6	.	5.78	1	.	0
41	8	.	3.41	1	.	0
41	8	.	78.6	2	.	0
41	12	.	3.1	1	.	0
41	12	.	80.6	2	.	0
41	16	.	73.2	2	.	0
41	18	.	2.19	1	.	0
41	20	.	73.5	2	.	0
41	24	.	1.8	1	1.2	1
41	24	.	70.2	2	.	0
41	28	.	65.6	2	.	0
41	30	.	1.2	1	0	1
41	32	.	63	2	.	0
42	0	50	.	.	.	.
42	0	.	57.4	2	.	0
42	0.5	.	2.2	1	.	0
42	2	.	4.85	1	.	0
42	4	.	6.11	1	.	0
42	4	.	91.9	2	.	0
42	6	.	6.22	1	.	0
42	8	.	4.52	1	.	0
42	8	.	89.7	2	.	0
42	12	.	5.12	1	.	0
42	12	.	87	2	.	0
42	16	.	85.1	2	.	0
42	18	.	2.85	1	.	0
42	20	.	79	2	.	0
42	24	.	1.8	1	1.2	1
42	24	.	76.4	2	.	0
42	28	.	75.3	2	.	0
42	30	.	2.25	1	.	0
42	32	.	69.5	2	.	0
43	0	50	.	.	.	.
43	0	.	58.8	2	.	0
43	0.5	.	1.88	1	.	0
43	2	.	4.54	1	.	0
43	4	.	5.93	1	.	0
43	4	.	78.1	2	.	0
43	6	.	4.28	1	.	0
43	8	.	3.02	1	.	0
43	8	.	71	2	.	0
43	12	.	3.46	1	.	0
43	12	.	74.2	2	.	0
43	16	.	70	2	.	0
43	18	.	2.55	1	.	0
43	20	.	71.2	2	.	0
43	24	.	1.2	1	0	1
43	24	.	69.6	2	.	0
43	28	.	63.8	2	.	0
43	30	.	1.2	1	0	1
43	32	.	65.4	2	.	0
44	0	50	.	.	.	.
44	0	.	66.9	2	.	0
44	0.5	.	2.91	1	.	0
44	2	.	7.67	1	.	0
44	4	.	5.02	1	.	0
44	4	.	106	2	.	0
44	6	.	4.56	1	.	0
44	8	.	3.34	1	.	0
44	8	.	98.9	2	.	0
44	12	.	2.39	1	.	0
44	12	.	95.7	2	.	0
44	16	.	91.3	2	.	0
44	18	.	2.46	1	.	0
44	20	.	85.9	2	.	0
44	24	.	1.2	1	0	1
44	24	.	83.9	2	.	0
44	28	.	82.1	2	.	0
44	30	.	1.2	1	0	1
44	32	.	77.8	2	.	0
45	0	50	.	.	.	.
45	0	.	71.4	2	.	0
45	0.5	.	2.79	1	.	0
45	2	.	5.72	1	.	0
45	4	.	6.44	1	.	0
45	4	.	88.6	2	.	0
45	6	.	4.79	1	.	0
45	8	.	4.04	1	.	0
45	8	.	83.9	2	.	0
45	12	.	3.43	1	.	0
45	12	.	83.7	2	.	0
45	16	.	76.9	2	.	0
45	18	.	1.84	1	.	0
45	20	.	80.5	2	.	0
45	24	.	1.91	1	.	0
45	24	.	78.4	2	.	0
45	28	.	75.5	2	.	0
45	30	.	1.2	1	0	1
45	32	.	74.9	2	.	0
46	0	50	.	.	.	.
46	0	.	57	2	.	0
46	0.5	.	2.29	1	.	0
46	2	.	3.36	1	.	0
46	4	.	3.62	1	.	0
46	4	.	77	2	.	0
46	6	.	3.83	1	.	0
46	8	.	3.52	1	.	0
46	8	.	79.4	2	.	0
46	12	.	3.26	1	.	0
46	12	.	73.5	2	.	0
46	16	.	70.1	2	.	0
46	18	.	1.2	1	0	1
46	20	.	71	2	.	0
46	24	.	1.2	1	0	1
46	24	.	65.7	2	.	0
46	28	.	64.9	2	.	0
46	30	.	1.2	1	0	1
46	32	.	64.9	2	.	0
47	0	50	.	.	.	.
47	0	.	59.3	2	.	0
47	0.5	.	1.92	1	.	0
47	2	.	3.63	1	.	0
47	4	.	4	1	.	0
47	4	.	80.2	2	.	0
47	6	.	3.23	1	.	0
47	8	.	4.73	1	.	0
47	8	.	78.5	2	.	0
47	12	.	4.41	1	.	0
47	12	.	79.7	2	.	0
47	16	.	75	2	.	0
47	18	.	2.59	1	.	0
47	20	.	73.4	2	.	0
47	24	.	1.2	1	0	1
47	24	.	69.4	2	.	0
47	28	.	70.7	2	.	0
47	30	.	1.2	1	0	1
47	32	.	68.9	2	.	0
48	0	50	.	.	.	.
48	0	.	62.3	2	.	0
48	0.5	.	1.9	1	.	0
48	2	.	5.05	1	.	0
48	4	.	4.84	1	.	0
48	4	.	101	2	.	0
48	6	.	5.92	1	.	0
48	8	.	4.17	1	.	0
48	8	.	97.6	2	.	0
48	12	.	2.38	1	.	0
48	12	.	93.5	2	.	0
48	16	.	86.9	2	.	0
48	18	.	3.59	1	.	0
48	20	.	82.8	2	.	0
48	24	.	1.96	1	.	0
48	24	.	80.5	2	.	0
48	28	.	76.4	2	.	0
48	30	.	1.2	1	0	1
48	32	.	76.3	2	.	0
49	0	50	.	.	.	.
49	0	.	57.8	2	.	0
49	0.5	.	1.2	1	0	1
49	2	.	3.25	1	.	0
49	4	.	4.55	1	.	0
49	4	.	70	2	.	0
49	6	.	3.6	1	.	0
49	8	.	3.88	1	.	0
49	8	.	74.6	2	.	0
49	12	.	4.47	1	.	0
49	12	.	74	2	.	0
49	16	.	73.6	2	.	0
49	18	.	3.91	1	.	0
49	20	.	74.8	2	.	0
49	24	.	2.6	1	.	0
49	24	.	71.8	2	.	0
49	28	.	68.2	2	.	0
49	30	.	2.64	1	.	0
49	32	.	70	2	.	0
50	0	50	.	.	.	.
50	0	.	60.5	2	.	0
50	0.5	.	2.92	1	.	0
50	2	.	3.5	1	.	0
50	4	.	4.61	1	.	0
50	4	.	93.9	2	.	0
50	6	.	4.85	1	.	0
50	8	.	4.31	1	.	0
50	8	.	91	2	.	0
50	12	.	3.65	1	.	0
50	12	.	83.8	2	.	0
50	16	.	81.8	2	.	0
50	18	.	2.09	1	.	0
50	20	.	76.8	2	.	0
50	24	.	1.8	1	1.2	1
50	24	.	74.6	2	.	0
50	28	.	76	2	.	0
50	30	.	1.2	1	0	1
50	32	.	70.6	2	.	0
51	0	50	.	.	.	.
51	0	.	59.9	2	.	0
51	0.5	.	1.8	1	1.2	1
51	2	.	4.25	1	.	0
51	4	.	3.73	1	.	0
51	4	.	83.8	2	.	0
51	6	.	4.94	1	.	0
51	8	.	4.23	1	.	0
51	8	.	81.3	2	.	0
51	12	.	3.96	1	.	0
51	12	.	79.5	2	.	0
51	16	.	77.8	2	.	0
51	18	.	3.15	1	.	0
51	20	.	77.9	2	.	0
51	24	.	2.66	1	.	0
51	24	.	74.1	2	.	0
51	28	.	71.2	2	.	0
51	30	.	1.8	1	1.2	1
51	32	.	70.4	2	.	0
52	0	50	.	.	.	.
52	0	.	58.6	2	.	0
52	0.5	.	2	1	.	0
52	2	.	4.26	1	.	0
52	4	.	5.44	1	.	0
52	4	.	88.3	2	.	0
52	6	.	4.74	1	.	0
52	8	.	5.41	1	.	0
52	8	.	86.9	2	.	0
52	12	.	2.78	1	.	0
52	12	.	86	2	.	0
52	16	.	79.9	2	.	0
52	18	.	2.88	1	.	0
52	20	.	78.3	2	.	0
52	24	.	2.39	1	.	0
52	24	.	78.1	2	.	0
52	28	.	73.7	2	.	0
52	30	.	1.8	1	1.2	1
52	32	.	72.1	2	.	0
53	0	50	.	.	.	.
53	0	.	58	2	.	0
53	0.5	.	3.86	1	.	0
53	2	.	5.52	1	.	0
53	4	.	4.91	1	.	0
53	4	.	83.5	2	.	0
53	6	.	4.15	1	.	0
53	8	.	3.8	1	.	0
53	8	.	85.2	2	.	0
53	12	.	3.57	1	.	0
53	12	.	77.7	2	.	0
53	16	.	75.5	2	.	0
53	18	.	2.06	1	.	0
53	20	.	73.8	2	.	0
53	24	.	1.8	1	1.2	1
53	24	.	69.7	2	.	0
53	28	.	70.1	2	.	0
53	30	.	1.2	1	0	1
53	32	.	65.9	2	.	0
54	0	50	.	.	.	.
54	0	.	60.2	2	.	0
54	0.5	.	3.6	1	.	0
54	2	.	5.75	1	.	0
54	4	.	5.15	1	.	0
54	4	.	92.3	2	.	0
54	6	.	4.69	1	.	0
54	8	.	4.15	1	.	0
54	8	.	85.5	2	.	0
54	12	.	3.42	1	.	0
54	12	.	88.1	2	.	0
54	16	.	87.5	2	.	0
54	18	.	1.8	1	1.2	1
54	20	.	79.6	2	.	0
54	24	.	2.17	1	.	0
54	24	.	77.4	2	.	0
54	28	.	80.7	2	.	0
54	30	.	1.2	1	0	1
54	32	.	74.3	2	.	0
55	0	50	.	.	.	.
55	0	.	65.8	2	.	0
55	0.5	.	1.2	1	0	1
55	2	.	3.96	1	.	0
55	4	.	4.67	1	.	0
55	4	.	88.7	2	.	0
55	6	.	5.29	1	.	0
55	8	.	3.66	1	.	0
55	8	.	83.4	2	.	0
55	12	.	3.61	1	.	0
55	12	.	83.1	2	.	0
55	16	.	83.8	2	.	0
55	18	.	2.68	1	.	0
55	20	.	81.2	2	.	0
55	24	.	1.8	1	1.2	1
55	24	.	74.8	2	.	0
55	28	.	74.4	2	.	0
55	30	.	1.2	1	0	1
55	32	.	68.2	2	.	0
56	0	50	.	.	.	.
56	0	.	62.5	2	.	0
56	0.5	.	1.84	1	.	0
56	2	.	4.93	1	.	0
56	4	.	5.45	1	.	0
56	4	.	80.4	2	.	0
56	6	.	4.32	1	.	0
56	8	.	3.81	1	.	0
56	8	.	82.8	2	.	0
56	12	.	4.03	1	.	0
56	12	.	79.4	2	.	0
56	16	.	75.3	2	.	0
56	18	.	1.8	1	1.2	1
56	20	.	71.5	2	.	0
56	24	.	1.87	1	.	0
56	24	.	69.2	2	.	0
56	28	.	69.4	2	.	0
56	30	.	1.2	1	0	1
56	32	.	67.6	2	.	0
57	0	50	.	.	.	.
57	0	.	52.7	2	.	0
57	0.5	.	2.12	1	.	0
57	2	.	5.92	1	.	0
57	4	.	5.72	1	.	0
57	4	.	79.1	2	.	0
57	6	.	5.28	1	.	0
57	8	.	5.36	1	.	0
57	8	.	80.5	2	.	0
57	12	.	3.06	1	.	0
57	12	.	76.2	2	.	0
57	16	.	75.4	2	.	0
57	18	.	1.8	1	1.2	1
57	20	.	73.1	2	.	0
57	24	.	1.2	1	0	1
57	24	.	69.7	2	.	0
57	28	.	68.2	2	.	0
57	30	.	1.8	1	1.2	1
57	32	.	63.7	2	.	0
58	0	50	.	.	.	.
58	0	.	64.7	2	.	0
58	0.5	.	2.42	1	.	0
58	2	.	4.62	1	.	0
58	4	.	5.16	1	.	0
58	4	.	90.6	2	.	0
58	6	.	4.37	1	.	0
58	8	.	3.28	1	.	0
58	8	.	84.8	2	.	0
58	12	.	3.21	1	.	0
58	12	.	84.5	2	.	0
58	16	.	85.7	2	.	0
58	18	.	2.55	1	.	0
58	20	.	77.3	2	.	0
58	24	.	2	1	.	0
58	24	.	72.9	2	.	0
58	28	.	75.6	2	.	0
58	30	.	1.2	1	0	1
58	32	.	69.4	2	.	0
59	0	50	.	.	.	.
59	0	.	61.7	2	.	0
59	0.5	.	2.75	1	.	0
59	2	.	4.87	1	.	0
59	4	.	5.91	1	.	0
59	4	.	90.3	2	.	0
59	6	.	3.3	1	.	0
59	8	.	4.37	1	.	0
59	8	.	86.9	2	.	0
59	12	.	3.15	1	.	0
59	12	.	85.8	2	.	0
59	16	.	85.4	2	.	0
59	18	.	2.2	1	.	0
59	20	.	79.8	2	.	0
59	24	.	2.21	1	.	0
59	24	.	73.8	2	.	0
59	28	.	70.6	2	.	0
59	30	.	1.2	1	0	1
59	32	.	71.2	2	.	0
60	0	50	.	.	.	.
60	0	.	66.3	2	.	0
60	0.5	.	4.68	1	.	0
60	2	.	7.08	1	.	0
60	4	.	6.34	1	.	0
60	4	.	92.9	2	.	0
60	6	.	4.85	1	.	0
60	8	.	4.61	1	.	0
60	8	.	88.5	2	.	0
60	12	.	3.2	1	.	0
60	12	.	88.9	2	.	0
60	16	.	89	2	.	0
60	18	.	2.57	1	.	0
60	20	.	80.7	2	.	0
60	24	.	1.8	1	1.2	1
60	24	.	81.3	2	.	0
60	28	.	73.9	2	.	0
60	30	.	1.2	1	0	1
60	32	.	72.9	2	.	0
61	0	50	.	.	.	.
61	0	.	59.9	2	.	0
61	0.5	.	4.03	1	.	0
61	2	.	5.8	1	.	0
61	4	.	4.86	1	.	0
61	4	.	91.2	2	.	0
61	6	.	5.42	1	.	0
61	8	.	6.16	1	.	0
61	8	.	88.2	2	.	0
61	12	.	3.15	1	.	0
61	12	.	79.2	2	.	0
61	16	.	78.4	2	.	0
61	18	.	2.49	1	.	0
61	20	.	76.2	2	.	0
61	24	.	2.26	1	.	0
61	24	.	70.9	2	.	0
61	28	.	70.4	2	.	0
61	30	.	1.8	1	1.2	1
61	32	.	72.2	2	.	0
62	0	50	.	.	.	.
62	0	.	54.7	2	.	0
62	0.5	.	2.57	1	.	0
62	2	.	5.52	1	.	0
62	4	.	6.13	1	.	0
62	4	.	85.6	2	.	0
62	6	.	5.22	1	.	0
62	8	.	4.55	1	.	0
62	8	.	83	2	.	0
62	12	.	3.45	1	.	0
62	12	.	77.7	2	.	0
62	16	.	76.2	2	.	0
62	18	.	1.8	1	1.2	1
62	20	.	74.4	2	.	0
62	24	.	1.8	1	1.2	1
62	24	.	76.1	2	.	0
62	28	.	65.3	2	.	0
62	30	.	1.8	1	1.2	1
62	32	.	65.8	2	.	0
63	0	50	.	.	.	.
63	0	.	58.5	2	.	0
63	0.5	.	4.03	1	.	0
63	2	.	4.39	1	.	0
63	4	.	3.78	1	.	0
63	4	.	77	2	.	0
63	6	.	4.27	1	.	0
63	8	.	4.45	1	.	0
63	8	.	77.9	2	.	0
63	12	.	2.9	1	.	0
63	12	.	76.2	2	.	0
63	16	.	74.4	2	.	0
63	18	.	1.2	1	0	1
63	20	.	71.5	2	.	0
63	24	.	2.02	1	.	0
63	24	.	70.1	2	.	0
63	28	.	70	2	.	0
63	30	.	1.2	1	0	1
63	32	.	67	2	.	0
64	0	50	.	.	.	.
64	0	.	67.2	2	.	0
64	0.5	.	2.04	1	.	0
64	2	.	5.56	1	.	0
64	4	.	4.67	1	.	0
64	4	.	85.5	2	.	0
64	6	.	4.38	1	.	0
64	8	.	4.41	1	.	0
64	8	.	80	2	.	0
64	12	.	3.47	1	.	0
64	12	.	82.8	2	.	0
64	16	.	75.7	2	.	0
64	18	.	1.8	1	1.2	1
64	20	.	75.6	2	.	0
64	24	.	1.8	1	1.2	1
64	24	.	73.1	2	.	0
64	28	.	75.6	2	.	0
64	30	.	1.8	1	1.2	1
64	32	.	73	2	.	0
65	0	50	.	.	.	.
65	0	.	60.8	2	.	0
65	0.5	.	3.8	1	.	0
65	2	.	5.73	1	.	0
65	4	.	3.92	1	.	0
65	4	.	89.6	2	.	0
65	6	.	3.85	1	.	0
65	8	.	3.69	1	.	0
65	8	.	84.9	2	.	0
65	12	.	3.83	1	.	0
65	12	.	78.3	2	.	0
65	16	.	75.9	2	.	0
65	18	.	2.79	1	.	0
65	20	.	75.6	2	.	0
65	24	.	1.81	1	.	0
65	24	.	70.3	2	.	0
65	28	.	70.7	2	.	0
65	30	.	1.2	1	0	1
65	32	.	69.2	2	.	0
66	0	50	.	.	.	.
66	0	.	61.8	2	.	0
66	0.5	.	3.23	1	.	0
66	2	.	5.7	1	.	0
66	4	.	5.49	1	.	0
66	4	.	90.4	2	.	0
66	6	.	5.31	1	.	0
66	8	.	5.5	1	.	0
66	8	.	88.2	2	.	0
66	12	.	3.89	1	.	0
66	12	.	88.4	2	.	0
66	16	.	85.2	2	.	0
66	18	.	3.3	1	.	0
66	20	.	80.6	2	.	0
66	24	.	2.07	1	.	0
66	24	.	83.8	2	.	0
66	28	.	74	2	.	0
66	30	.	1.8	1	1.2	1
66	32	.	74.5	2	.	0
67	0	50	.	.	.	.
67	0	.	59.3	2	.	0
67	0.5	.	2.54	1	.	0
67	2	.	5.8	1	.	0
67	4	.	6.16	1	.	0
67	4	.	94.3	2	.	0
67	6	.	4.57	1	.	0
67	8	.	4.85	1	.	0
67	8	.	85.5	2	.	0
67	12	.	4.14	1	.	0
67	12	.	83.3	2	.	0
67	16	.	79.4	2	.	0
67	18	.	2.79	1	.	0
67	20	.	76.7	2	.	0
67	24	.	2.03	1	.	0
67	24	.	76.3	2	.	0
67	28	.	73.8	2	.	0
67	30	.	1.8	1	1.2	1
67	32	.	68.2	2	.	0
68	0	50	.	.	.	.
68	0	.	60.1	2	.	0
68	0.5	.	1.8	1	1.2	1
68	2	.	3.17	1	.	0
68	4	.	4.25	1	.	0
68	4	.	82.9	2	.	0
68	6	.	4.39	1	.	0
68	8	.	3.93	1	.	0
68	8	.	80.8	2	.	0
68	12	.	2.72	1	.	0
68	12	.	76.9	2	.	0
68	16	.	75.5	2	.	0
68	18	.	2.43	1	.	0
68	20	.	74.1	2	.	0
68	24	.	1.84	1	.	0
68	24	.	71.6	2	.	0
68	28	.	71.4	2	.	0
68	30	.	1.8	1	1.2	1
68	32	.	67.8	2	.	0
69	0	50	.	.	.	.
69	0	.	63.7	2	.	0
69	0.5	.	2.62	1	.	0
69	2	.	3.45	1	.	0
69	4	.	2.52	1	.	0
69	4	.	84.1	2	.	0
69	6	.	3.92	1	.	0
69	8	.	3.88	1	.	0
69	8	.	80.3	2	.	0
69	12	.	3.02	1	.	0
69	12	.	83.4	2	.	0
69	16	.	79	2	.	0
69	18	.	2.32	1	.	0
69	20	.	74.6	2	.	0
69	24	.	1.2	1	0	1
69	24	.	73.9	2	.	0
69	28	.	68.6	2	.	0
69	30	.	1.2	1	0	1
69	32	.	67.4	2	.	0
70	0	50	.	.	.	.
70	0	.	62.3	2	.	0
70	0.5	.	1.87	1	.	0
70	2	.	4.89	1	.	0
70	4	.	5.35	1	.	0
70	4	.	90.3	2	.	0
70	6	.	4.92	1	.	0
70	8	.	4.54	1	.	0
70	8	.	86.2	2	.	0
70	12	.	4.73	1	.	0
70	12	.	83.5	2	.	0
70	16	.	79.6	2	.	0
70	18	.	2.6	1	.	0
70	20	.	74.6	2	.	0
70	24	.	1.86	1	.	0
70	24	.	76.2	2	.	0
70	28	.	74.3	2	.	0
70	30	.	1.8	1	1.2	1
70	32	.	67.7	2	.	0
71	0	50	.	.	.	.
71	0	.	58.7	2	.	0
71	0.5	.	3.69	1	.	0
71	2	.	4.99	1	.	0
71	4	.	5.02	1	.	0
71	4	.	79.3	2	.	0
71	6	.	4.02	1	.	0
71	8	.	3.85	1	.	0
71	8	.	83	2	.	0
71	12	.	3.67	1	.	0
71	12	.	78.2	2	.	0
71	16	.	74.3	2	.	0
71	18	.	1.8	1	1.2	1
71	20	.	71.5	2	.	0
71	24	.	2.09	1	.	0
71	24	.	70.6	2	.	0
71	28	.	66.8	2	.	0
71	30	.	1.2	1	0	1
71	32	.	67.1	2	.	0
72	0	50	.	.	.	.
72	0	.	62.2	2	.	0
72	0.5	.	2.04	1	.	0
72	2	.	4.15	1	.	0
72	4	.	6.55	1	.	0
72	4	.	91.7	2	.	0
72	6	.	3.45	1	.	0
72	8	.	4.25	1	.	0
72	8	.	87.2	2	.	0
72	12	.	3.52	1	.	0
72	12	.	86.7	2	.	0
72	16	.	80.5	2	.	0
72	18	.	2.18	1	.	0
72	20	.	82	2	.	0
72	24	.	1.8	1	1.2	1
72	24	.	78.4	2	.	0
72	28	.	74.8	2	.	0
72	30	.	1.8	1	1.2	1
72	32	.	70.1	2	.	0
73	0	50	.	.	.	.
73	0	.	59.9	2	.	0
73	0.5	.	3.24	1	.	0
73	2	.	5.98	1	.	0
73	4	.	4.53	1	.	0
73	4	.	81.4	2	.	0
73	6	.	5.07	1	.	0
73	8	.	3.98	1	.	0
73	8	.	80.4	2	.	0
73	12	.	3.07	1	.	0
73	12	.	76.5	2	.	0
73	16	.	77.2	2	.	0
73	18	.	2.42	1	.	0
73	20	.	70.6	2	.	0
73	24	.	1.8	1	1.2	1
73	24	.	69.5	2	.	0
73	28	.	69.9	2	.	0
73	30	.	1.2	1	0	1
73	32	.	69.2	2	.	0
74	0	50	.	.	.	.
74	0	.	55.9	2	.	0
74	0.5	.	1.8	1	1.2	1
74	2	.	4.17	1	.	0
74	4	.	4.63	1	.	0
74	4	.	79.6	2	.	0
74	6	.	4.35	1	.	0
74	8	.	4.67	1	.	0
74	8	.	76.4	2	.	0
74	12	.	2.7	1	.	0
74	12	.	74.6	2	.	0
74	16	.	73.7	2	.	0
74	18	.	2.78	1	.	0
74	20	.	72.9	2	.	0
74	24	.	1.8	1	1.2	1
74	24	.	69.8	2	.	0
74	28	.	65	2	.	0
74	30	.	1.2	1	0	1
74	32	.	63.2	2	.	0
75	0	50	.	.	.	.
75	0	.	61.3	2	.	0
75	0.5	.	1.8	1	1.2	1
75	2	.	6.19	1	.	0
75	4	.	5.09	1	.	0
75	4	.	87.4	2	.	0
75	6	.	4.97	1	.	0
75	8	.	4	1	.	0
75	8	.	90.2	2	.	0
75	12	.	3.45	1	.	0
75	12	.	83.2	2	.	0
75	16	.	82.5	2	.	0
75	18	.	2.65	1	.	0
75	20	.	75.9	2	.	0
75	24	.	1.8	1	1.2	1
75	24	.	70.3	2	.	0
75	28	.	68.5	2	.	0
75	30	.	1.2	1	0	1
75	32	.	69.5	2	.	0
76	0	50	.	.	.	.
76	0	.	63.8	2	.	0
76	0.5	.	4.3	1	.	0
76	2	.	6.03	1	.	0
76	4	.	4.87	1	.	0
76	4	.	89.7	2	.	0
76	6	.	5.89	1	.	0
76	8	.	4.06	1	.	0
76	8	.	87.7	2	.	0
76	12	.	4.34	1	.	0
76	12	.	84.9	2	.	0
76	16	.	82.8	2	.	0
76	18	.	3.28	1	.	0
76	20	.	78.9	2	.	0
76	24	.	2.19	1	.	0
76	24	.	74.6	2	.	0
76	28	.	75.1	2	.	0
76	30	.	1.2	1	0	1
76	32	.	70.7	2	.	0
77	0	50	.	.	.	.
77	0	.	58.8	2	.	0
77	0.5	.	1.97	1	.	0
77	2	.	5.67	1	.	0
77	4	.	6.9	1	.	0
77	4	.	79.2	2	.	0
77	6	.	6.85	1	.	0
77	8	.	4.78	1	.	0
77	8	.	76.6	2	.	0
77	12	.	3.71	1	.	0
77	12	.	76.4	2	.	0
77	16	.	75.5	2	.	0
77	18	.	2.76	1	.	0
77	20	.	69.6	2	.	0
77	24	.	2.52	1	.	0
77	24	.	70.2	2	.	0
77	28	.	66.3	2	.	0
77	30	.	1.2	1	0	1
77	32	.	65	2	.	0
78	0	50	.	.	.	.
78	0	.	59.7	2	.	0
78	0.5	.	1.2	1	0	1
78	2	.	4.74	1	.	0
78	4	.	3.02	1	.	0
78	4	.	77.6	2	.	0
78	6	.	4.17	1	.	0
78	8	.	4.56	1	.	0
78	8	.	74	2	.	0
78	12	.	2.45	1	.	0
78	12	.	68	2	.	0
78	16	.	71.1	2	.	0
78	18	.	1.8	1	1.2	1
78	20	.	70.7	2	.	0
78	24	.	1.8	1	1.2	1
78	24	.	65.8	2	.	0
78	28	.	61.9	2	.	0
78	30	.	1.2	1	0	1
78	32	.	63	2	.	0
79	0	50	.	.	.	.
79	0	.	61	2	.	0
79	0.5	.	1.8	1	1.2	1
79	2	.	5.04	1	.	0
79	4	.	4.58	1	.	0
79	4	.	85.4	2	.	0
79	6	.	4.8	1	.	0
79	8	.	4.68	1	.	0
79	8	.	81.6	2	.	0
79	12	.	3.43	1	.	0
79	12	.	83.5	2	.	0
79	16	.	77.7	2	.	0
79	18	.	3.35	1	.	0
79	20	.	76.1	2	.	0
79	24	.	2.32	1	.	0
79	24	.	71.7	2	.	0
79	28	.	70.2	2	.	0
79	30	.	1.2	1	0	1
79	32	.	70.1	2	.	0
80	0	50	.	.	.	.
80	0	.	56.4	2	.	0
80	0.5	.	1.82	1	.	0
80	2	.	4.17	1	.	0
80	4	.	4.03	1	.	0
80	4	.	87.1	2	.	0
80	6	.	4.43	1	.	0
80	8	.	3.27	1	.	0
80	8	.	86	2	.	0
80	12	.	3.02	1	.	0
80	12	.	79.7	2	.	0
80	16	.	74.5	2	.	0
80	18	.	1.87	1	.	0
80	20	.	74.2	2	.	0
80	24	.	1.2	1	0	1
80	24	.	69	2	.	0
80	28	.	67.4	2	.	0
80	30	.	1.2	1	0	1
80	32	.	65.2	2	.	0
81	0	50	.	.	.	.
81	0	.	63.5	2	.	0
81	0.5	.	1.97	1	.	0
81	2	.	4.15	1	.	0
81	4	.	5.27	1	.	0
81	4	.	92.8	2	.	0
81	6	.	4.3	1	.	0
81	8	.	3.22	1	.	0
81	8	.	90.6	2	.	0
81	12	.	3.41	1	.	0
81	12	.	84.4	2	.	0
81	16	.	81.8	2	.	0
81	18	.	1.8	1	1.2	1
81	20	.	81.9	2	.	0
81	24	.	1.2	1	0	1
81	24	.	79.2	2	.	0
81	28	.	78.1	2	.	0
81	30	.	1.8	1	1.2	1
81	32	.	75.8	2	.	0
82	0	50	.	.	.	.
82	0	.	58.9	2	.	0
82	0.5	.	1.2	1	0	1
82	2	.	2.92	1	.	0
82	4	.	3.21	1	.	0
82	4	.	74.2	2	.	0
82	6	.	4.25	1	.	0
82	8	.	3.68	1	.	0
82	8	.	73.8	2	.	0
82	12	.	4.27	1	.	0
82	12	.	72.2	2	.	0
82	16	.	69.1	2	.	0
82	18	.	2.51	1	.	0
82	20	.	67.5	2	.	0
82	24	.	1.8	1	1.2	1
82	24	.	69.8	2	.	0
82	28	.	68.5	2	.	0
82	30	.	1.8	1	1.2	1
82	32	.	65.4	2	.	0
83	0	50	.	.	.	.
83	0	.	63.6	2	.	0
83	0.5	.	1.2	1	0	1
83	2	.	3.2	1	.	0
83	4	.	5.89	1	.	0
83	4	.	84.4	2	.	0
83	6	.	5.65	1	.	0
83	8	.	5.37	1	.	0
83	8	.	85.5	2	.	0
83	12	.	3.88	1	.	0
83	12	.	82.3	2	.	0
83	16	.	82.5	2	.	0
83	18	.	2.6	1	.	0
83	20	.	81.1	2	.	0
83	24	.	1.98	1	.	0
83	24	.	77.6	2	.	0
83	28	.	71.4	2	.	0
83	30	.	1.2	1	0	1
83	32	.	69.7	2	.	0
84	0	50	.	.	.	.
84	0	.	56.7	2	.	0
84	0.5	.	3.1	1	.	0
84	2	.	5.51	1	.	0
84	4	.	5.94	1	.	0
84	4	.	76	2	.	0
84	6	.	3.48	1	.	0
84	8	.	4.21	1	.	0
84	8	.	75.8	2	.	0
84	12	.	3.93	1	.	0
84	12	.	74.9	2	.	0
84	16	.	70.4	2	.	0
84	18	.	2.75	1	.	0
84	20	.	71.8	2	.	0
84	24	.	1.83	1	.	0
84	24	.	69.6	2	.	0
84	28	.	64.5	2	.	0
84	30	.	1.8	1	1.2	1
84	32	.	64.7	2	.	0
85	0	50	.	.	.	.
85	0	.	57.6	2	.	0
85	0.5	.	3.02	1	.	0
85	2	.	4.95	1	.	0
85	4	.	4.72	1	.	0
85	4	.	87.3	2	.	0
85	6	.	4.82	1	.	0
85	8	.	4.85	1	.	0
85	8	.	80.7	2	.	0
85	12	.	3.46	1	.	0
85	12	.	79.8	2	.	0
85	16	.	73.9	2	.	0
85	18	.	2.46	1	.	0
85	20	.	72.7	2	.	0
85	24	.	1.2	1	0	1
85	24	.	72.2	2	.	0
85	28	.	71.3	2	.	0
85	30	.	1.2	1	0	1
85	32	.	66.4	2	.	0
86	0	50	.	.	.	.
86	0	.	52	2	.	0
86	0.5	.	3.07	1	.	0
86	2	.	4.55	1	.	0
86	4	.	4.85	1	.	0
86	4	.	75.8	2	.	0
86	6	.	3.53	1	.	0
86	8	.	3.55	1	.	0
86	8	.	70.9	2	.	0
86	12	.	1.8	1	1.2	1
86	12	.	71.6	2	.	0
86	16	.	64.1	2	.	0
86	18	.	1.8	1	1.2	1
86	20	.	66.7	2	.	0
86	24	.	1.2	1	0	1
86	24	.	65.9	2	.	0
86	28	.	62.5	2	.	0
86	30	.	1.2	1	0	1
86	32	.	61.4	2	.	0
87	0	50	.	.	.	.
87	0	.	57.6	2	.	0
87	0.5	.	2.44	1	.	0
87	2	.	5.11	1	.	0
87	4	.	6.57	1	.	0
87	4	.	72.8	2	.	0
87	6	.	4.39	1	.	0
87	8	.	3.81	1	.	0
87	8	.	71.6	2	.	0
87	12	.	3.83	1	.	0
87	12	.	70.9	2	.	0
87	16	.	69.4	2	.	0
87	18	.	2.95	1	.	0
87	20	.	70.7	2	.	0
87	24	.	1.8	1	1.2	1
87	24	.	66.8	2	.	0
87	28	.	64.1	2	.	0
87	30	.	1.2	1	0	1
87	32	.	64.8	2	.	0
88	0	50	.	.	.	.
88	0	.	59	2	.	0
88	0.5	.	1.8	1	1.2	1
88	2	.	3.73	1	.	0
88	4	.	4.02	1	.	0
88	4	.	88.6	2	.	0
88	6	.	5.15	1	.	0
88	8	.	4.19	1	.	0
88	8	.	88.8	2	.	0
88	12	.	3.02	1	.	0
88	12	.	82.4	2	.	0
88	16	.	75.1	2	.	0
88	18	.	2.15	1	.	0
88	20	.	73.9	2	.	0
88	24	.	1.2	1	0	1
88	24	.	69.8	2	.	0
88	28	.	69.4	2	.	0
88	30	.	1.2	1	0	1
88	32	.	68.2	2	.	0
89	0	50	.	.	.	.
89	0	.	59.1	2	.	0
89	0.5	.	3.08	1	.	0
89	2	.	6.12	1	.	0
89	4	.	6.18	1	.	0
89	4	.	98.1	2	.	0
89	6	.	4.6	1	.	0
89	8	.	5.65	1	.	0
89	8	.	94.2	2	.	0
89	12	.	4.51	1	.	0
89	12	.	91.1	2	.	0
89	16	.	86	2	.	0
89	18	.	2.34	1	.	0
89	20	.	80.7	2	.	0
89	24	.	1.8	1	1.2	1
89	24	.	80.6	2	.	0
89	28	.	76.1	2	.	0
89	30	.	1.8	1	1.2	1
89	32	.	70.8	2	.	0
90	0	50	.	.	.	.
90	0	.	62.4	2	.	0
90	0.5	.	3.25	1	.	0
90	2	.	6.7	1	.	0
90	4	.	6.19	1	.	0
90	4	.	78.8	2	.	0
90	6	.	4.89	1	.	0
90	8	.	3.91	1	.	0
90	8	.	83.2	2	.	0
90	12	.	2.43	1	.	0
90	12	.	74.5	2	.	0
90	16	.	75.5	2	.	0
90	18	.	2.24	1	.	0
90	20	.	72.2	2	.	0
90	24	.	1.8	1	1.2	1
90	24	.	68.4	2	.	0
90	28	.	62.9	2	.	0
90	30	.	1.2	1	0	1
90	32	.	67.6	2	.	0
91	0	50	.	.	.	.
91	0	.	59.8	2	.	0
91	0.5	.	3.09	1	.	0
91	2	.	5.03	1	.	0
91	4	.	5.62	1	.	0
91	4	.	85.8	2	.	0
91	6	.	3.52	1	.	0
91	8	.	3.79	1	.	0
91	8	.	85.7	2	.	0
91	12	.	3.49	1	.	0
91	12	.	84.1	2	.	0
91	16	.	79.1	2	.	0
91	18	.	2.37	1	.	0
91	20	.	72.7	2	.	0
91	24	.	2.02	1	.	0
91	24	.	74.2	2	.	0
91	28	.	72.5	2	.	0
91	30	.	1.8	1	1.2	1
91	32	.	73.1	2	.	0
92	0	50	.	.	.	.
92	0	.	59.5	2	.	0
92	0.5	.	3.47	1	.	0
92	2	.	4.83	1	.	0
92	4	.	4.82	1	.	0
92	4	.	94.9	2	.	0
92	6	.	4.56	1	.	0
92	8	.	3.72	1	.	0
92	8	.	89.9	2	.	0
92	12	.	3.82	1	.	0
92	12	.	90.2	2	.	0
92	16	.	86.5	2	.	0
92	18	.	1.83	1	.	0
92	20	.	80.9	2	.	0
92	24	.	1.2	1	0	1
92	24	.	78.5	2	.	0
92	28	.	74.5	2	.	0
92	30	.	1.8	1	1.2	1
92	32	.	74.1	2	.	0
93	0	50	.	.	.	.
93	0	.	59.7	2	.	0
93	0.5	.	4.55	1	.	0
93	2	.	5.09	1	.	0
93	4	.	6.03	1	.	0
93	4	.	79.9	2	.	0
93	6	.	4.33	1	.	0
93	8	.	4.04	1	.	0
93	8	.	78.1	2	.	0
93	12	.	3.59	1	.	0
93	12	.	81.1	2	.	0
93	16	.	77.7	2	.	0
93	18	.	3.04	1	.	0
93	20	.	75.5	2	.	0
93	24	.	1.8	1	1.2	1
93	24	.	71.9	2	.	0
93	28	.	70.3	2	.	0
93	30	.	1.8	1	1.2	1
93	32	.	68.7	2	.	0
94	0	50	.	.	.	.
94	0	.	61.6	2	.	0
94	0.5	.	1.94	1	.	0
94	2	.	4.51	1	.	0
94	4	.	4.85	1	.	0
94	4	.	79.5	2	.	0
94	6	.	4.67	1	.	0
94	8	.	4.44	1	.	0
94	8	.	76.7	2	.	0
94	12	.	3.23	1	.	0
94	12	.	73.9	2	.	0
94	16	.	70.3	2	.	0
94	18	.	2.5	1	.	0
94	20	.	73.5	2	.	0
94	24	.	1.8	1	1.2	1
94	24	.	65.6	2	.	0
94	28	.	67.5	2	.	0
94	30	.	1.2	1	0	1
94	32	.	63.8	2	.	0
95	0	50	.	.	.	.
95	0	.	58.3	2	.	0
95	0.5	.	3.08	1	.	0
95	2	.	5.39	1	.	0
95	4	.	4.59	1	.	0
95	4	.	83	2	.	0
95	6	.	4.28	1	.	0
95	8	.	3.23	1	.	0
95	8	.	79.8	2	.	0
95	12	.	2.79	1	.	0
95	12	.	74.8	2	.	0
95	16	.	70.8	2	.	0
95	18	.	1.2	1	0	1
95	20	.	66.2	2	.	0
95	24	.	1.8	1	1.2	1
95	24	.	67.1	2	.	0
95	28	.	62.2	2	.	0
95	30	.	1.2	1	0	1
95	32	.	59.8	2	.	0
96	0	50	.	.	.	.
96	0	.	57.2	2	.	0
96	0.5	.	1.8	1	1.2	1
96	2	.	6.51	1	.	0
96	4	.	6.75	1	.	0
96	4	.	89.1	2	.	0
96	6	.	5.84	1	.	0
96	8	.	5.89	1	.	0
96	8	.	88	2	.	0
96	12	.	5.4	1	.	0
96	12	.	84.6	2	.	0
96	16	.	79.8	2	.	0
96	18	.	3.98	1	.	0
96	20	.	78.3	2	.	0
96	24	.	3.07	1	.	0
96	24	.	79.4	2	.	0
96	28	.	73.9	2	.	0
96	30	.	1.8	1	1.2	1
96	32	.	69.8	2	.	0
97	0	50	.	.	.	.
97	0	.	59.8	2	.	0
97	0.5	.	1.8	1	1.2	1
97	2	.	3.57	1	.	0
97	4	.	3.6	1	.	0
97	4	.	80	2	.	0
97	6	.	3.69	1	.	0
97	8	.	2.75	1	.	0
97	8	.	72.8	2	.	0
97	12	.	3.15	1	.	0
97	12	.	77.3	2	.	0
97	16	.	75	2	.	0
97	18	.	2.16	1	.	0
97	20	.	70	2	.	0
97	24	.	1.8	1	1.2	1
97	24	.	68.3	2	.	0
97	28	.	69.6	2	.	0
97	30	.	1.8	1	1.2	1
97	32	.	61.2	2	.	0
98	0	50	.	.	.	.
98	0	.	63.4	2	.	0
98	0.5	.	2.92	1	.	0
98	2	.	5.17	1	.	0
98	4	.	4.37	1	.	0
98	4	.	86.8	2	.	0
98	6	.	4.54	1	.	0
98	8	.	4.47	1	.	0
98	8	.	86.4	2	.	0
98	12	.	3.74	1	.	0
98	12	.	83.2	2	.	0
98	16	.	78.3	2	.	0
98	18	.	1.8	1	1.2	1
98	20	.	74.4	2	.	0
98	24	.	1.2	1	0	1
98	24	.	78.3	2	.	0
98	28	.	67.7	2	.	0
98	30	.	1.2	1	0	1
98	32	.	71.9	2	.	0
99	0	50	.	.	.	.
99	0	.	60.2	2	.	0
99	0.5	.	4.79	1	.	0
99	2	.	6.69	1	.	0
99	4	.	4.58	1	.	0
99	4	.	89.4	2	.	0
99	6	.	5.13	1	.	0
99	8	.	2.8	1	.	0
99	8	.	85.2	2	.	0
99	12	.	3.39	1	.	0
99	12	.	81.9	2	.	0
99	16	.	80.4	2	.	0
99	18	.	2.39	1	.	0
99	20	.	72.3	2	.	0
99	24	.	1.8	1	1.2	1
99	24	.	74.4	2	.	0
99	28	.	70.6	2	.	0
99	30	.	1.2	1	0	1
99	32	.	69.1	2	.	0
100	0	50	.	.	.	.
100	0	.	58.8	2	.	0
100	0.5	.	1.8	1	1.2	1
100	2	.	5.31	1	.	0
100	4	.	4.93	1	.	0
100	4	.	82.7	2	.	0
100	6	.	5.15	1	.	0
100	8	.	3.68	1	.	0
100	8	.	79.6	2	.	0
100	12	.	3.51	1	.	0
100	12	.	76.2	2	.	0
100	16	.	71.3	2	.	0
100	18	.	3.23	1	.	0
100	20	.	74.1	2	.	0
100	24	.	1.85	1	.	0
100	24	.	66.4	2	.	0
100	28	.	65.6	2	.	0
100	30	.	1.8	1	1.2	1
100	32	.	65.8	2	.	0
